Division,WeightClassKg,Place,Name,Team,BodyweightKg,Best3SquatKg,Best3BenchKg,Best3DeadliftKg,TotalKg,Equipment,Event,Sex
Boys,56,1,Garrett Hlavaty,Cleveland Tarkington,54.93,142.88,70.31,120.2,333.39,Single-ply,SBD,M
Boys,56,2,Nathaniel Jimenez,Dayton,55.34,120.2,81.65,127.01,328.85,Single-ply,SBD,M
Boys,56,3,Ruben Jaramillo,Winnie East Chambers,54.75,106.59,63.5,120.2,290.3,Single-ply,SBD,M
Boys,56,4,Chris Gobel,Liberty,54.84,83.91,70.31,133.81,288.03,Single-ply,SBD,M
Boys,60,1,Logan Postert,Sour Lake Hardin-Jefferson,58.11,111.13,70.31,124.74,306.17,Single-ply,SBD,M
Boys,60,2,Brennan Pott,Cleveland Tarkington,57.74,102.06,65.77,136.08,303.91,Single-ply,SBD,M
Boys,60,3,Chase McCain,Sour Lake Hardin-Jefferson,58.56,111.13,77.11,111.13,299.37,Single-ply,SBD,M
Boys,60,DQ,Monroe Jenkins,Warren,59.65,86.18,,,,Single-ply,SBD,M
Boys,67.5,1,Trinity Morris,Warren,65.41,147.42,117.93,170.1,435.45,Single-ply,SBD,M
Boys,67.5,2,Jayden Landry,Anahuac,63,147.42,81.65,154.22,383.29,Single-ply,SBD,M
Boys,67.5,3,Jacob Deplois,Cleveland Tarkington,63.82,136.08,65.77,170.1,371.95,Single-ply,SBD,M
Boys,67.5,4,Coltin Anglin,Cleveland Tarkington,64.82,138.35,83.91,138.35,360.61,Single-ply,SBD,M
Boys,67.5,5,Colby Vauter,Dayton,65.18,138.35,77.11,145.15,360.61,Single-ply,SBD,M
Boys,75,1,Trevor Howard,Cleveland Tarkington,71.67,167.83,83.91,185.97,437.72,Single-ply,SBD,M
Boys,75,2,Chris Moulton,Anahuac,74.66,154.22,81.65,174.63,410.5,Single-ply,SBD,M
Boys,75,3,Ke'Shawn Whittington,Anahuac,71.53,124.74,83.91,170.1,378.75,Single-ply,SBD,M
Boys,75,4,Tristan Conner,Sour Lake Hardin-Jefferson,74.34,136.08,83.91,156.49,376.48,Single-ply,SBD,M
Boys,75,5,Jacob Galle,Sour Lake Hardin-Jefferson,71.94,129.27,79.38,163.29,371.95,Single-ply,SBD,M
Boys,75,6,Joseph Hlavaty,Cleveland Tarkington,69.9,142.88,63.5,142.88,349.27,Single-ply,SBD,M
Boys,75,DQ,Jacob Scholl,Sour Lake Hardin-Jefferson,69.22,,,,,Single-ply,SBD,M
Boys,75,DQ,Zach Pike,Dayton,69.9,179.17,,,,Single-ply,SBD,M
Boys,82.5,1,Hunter McNair,Sour Lake Hardin-Jefferson,81.96,190.51,111.13,213.19,514.83,Single-ply,SBD,M
Boys,82.5,2,Perry Evans,Liberty,75.93,165.56,111.13,185.97,462.66,Single-ply,SBD,M
Boys,82.5,3,Blake Cruse,Sour Lake Hardin-Jefferson,76.75,161.03,92.99,190.51,444.52,Single-ply,SBD,M
Boys,82.5,4,Ben Schepf,Winnie East Chambers,77.29,142.88,72.57,174.63,390.09,Single-ply,SBD,M
Boys,82.5,5,Axel Castillo,Winnie East Chambers,79.24,147.42,68.04,174.63,390.09,Single-ply,SBD,M
Boys,82.5,6,Johnson Bricker,Cleveland Tarkington,80.01,140.61,79.38,167.83,387.82,Single-ply,SBD,M
Boys,82.5,7,Ty Louviere,Sour Lake Hardin-Jefferson,79.83,133.81,81.65,163.29,378.75,Single-ply,SBD,M
Boys,82.5,8,Cameron Hicks,Liberty,76.52,90.72,83.91,102.06,276.69,Single-ply,SBD,M
Boys,82.5,DQ,Dylan Jordan,Liberty,80.42,174.63,,,,Single-ply,SBD,M
Boys,90,1,Tim Flores,Sour Lake Hardin-Jefferson,88.45,231.33,158.76,217.72,607.81,Single-ply,SBD,M
Boys,90,2,Alex Brown,Liberty,89.72,181.44,122.47,174.63,478.54,Single-ply,SBD,M
Boys,90,3,Waylon Daily,Dayton,87.32,165.56,149.69,156.49,471.74,Single-ply,SBD,M
Boys,90,4,Caleb Hayden,Sour Lake Hardin-Jefferson,87.18,165.56,111.13,190.51,467.2,Single-ply,SBD,M
Boys,90,5,Thomas Lopez,Sour Lake Hardin-Jefferson,88.09,176.9,99.79,183.7,460.4,Single-ply,SBD,M
Boys,90,6,Noel Duran,Dayton,84.01,136.08,120.2,192.78,449.06,Single-ply,SBD,M
Boys,90,7,Brandon Haltom,Cleveland Tarkington,84.28,165.56,79.38,174.63,419.57,Single-ply,SBD,M
Boys,90,8,Marcum Thomas,Warren,89.09,145.15,86.18,151.95,383.29,Single-ply,SBD,M
Boys,100,1,Kyler Loftin,Warren,98.88,208.65,122.47,201.85,532.97,Single-ply,SBD,M
Boys,100,2,Dylan Broussard,Anahuac,98.84,192.78,115.67,195.04,503.49,Single-ply,SBD,M
Boys,100,3,Kole Leger,Warren,98.66,158.76,106.59,181.44,446.79,Single-ply,SBD,M
Boys,100,4,Luke Evans,Sour Lake Hardin-Jefferson,95.07,158.76,108.86,167.83,435.45,Single-ply,SBD,M
Boys,100,5,Noah McGallion,Warren,93.98,158.76,102.06,136.08,396.89,Single-ply,SBD,M
Boys,100,6,Nathan Greak,Cleveland Tarkington,91.76,149.69,68.04,142.88,360.61,Single-ply,SBD,M
Boys,100,7,James Henry,Anahuac,97.3,92.99,70.31,129.27,292.57,Single-ply,SBD,M
Boys,100,8,Shohn Alexander,Dayton,97.89,102.06,161.03,,263.08,Single-ply,SB,M
Boys,100,DQ,Aiden Humhprey,Dayton,97.7,197.31,,,,Single-ply,SBD,M
Boys,110,1,Daton Patterson,Dayton,107.23,183.7,108.86,192.78,485.34,Single-ply,SBD,M
Boys,110,DQ,Peyton McCormick,Cleveland Tarkington,102.69,181.44,113.4,,,Single-ply,SBD,M
Boys,125,1,James Tousha,Liberty,121.83,226.8,172.37,208.65,607.81,Single-ply,SBD,M
Boys,125,2,David McCoy,Sour Lake Hardin-Jefferson,124.74,226.8,129.27,201.85,557.92,Single-ply,SBD,M
Boys,125,3,Raul Gonzales,Liberty,116.12,215.46,120.2,201.85,537.51,Single-ply,SBD,M
Boys,125,4,Robert Wyckoff,Liberty,117.98,195.04,102.06,210.92,508.02,Single-ply,SBD,M
Boys,125,5,Johnny Hoy,Dayton,112.85,183.7,106.59,165.56,455.86,Single-ply,SBD,M
Boys,125,6,William Orozco,Anahuac,124.42,158.76,104.33,183.7,446.79,Single-ply,SBD,M
Boys,125,7,Mason Phillips,Sour Lake Hardin-Jefferson,114.94,165.56,102.06,163.29,430.91,Single-ply,SBD,M
Boys,125,8,Enrique Montez,Sour Lake Hardin-Jefferson,112.35,149.69,92.99,181.44,424.11,Single-ply,SBD,M
Boys,125,9,Lucas Tanton,Dayton,115.76,161.03,92.99,154.22,408.23,Single-ply,SBD,M
Boys,125,10,Skyler Shackelford,Sour Lake Hardin-Jefferson,113.58,124.74,88.45,136.08,349.27,Single-ply,SBD,M
Boys,125+,1,Michael Jauer,Sour Lake Hardin-Jefferson,156.94,215.46,151.95,201.85,569.26,Single-ply,SBD,M
Boys,125+,2,Hayden Lara,Winnie East Chambers,129.09,165.56,102.06,183.7,451.32,Single-ply,SBD,M
Boys,125+,3,Micah Hare,Cleveland Tarkington,127.6,151.95,108.86,151.95,412.77,Single-ply,SBD,M
