Sex,WeightClassKg,BodyweightKg,Name,Age,Division,Equipment,Squat1Kg,Squat2Kg,Squat3Kg,Best3SquatKg,Bench1Kg,Bench2Kg,Bench3Kg,Best3BenchKg,Deadlift1Kg,Deadlift2Kg,Deadlift3Kg,Best3DeadliftKg,TotalKg,Place,Event
F,67.5,63.8,Jeanna Bracetty,28,Open,Single-ply,,,,,47.5,50,-52.5,50,,,,,50,1,B
F,90+,91.6,Carol Adams,59,Open,Single-ply,,,,,57.5,-60,60,60,,,,,60,1,B
F,90+,91.6,Carol Adams,59,Masters 50+,Single-ply,,,,,57.5,-60,60,60,,,,,60,1,B
F,90+,91.6,Carol Adams,59,Paralympic,Single-ply,,,,,57.5,-60,60,60,,,,,60,1,B
M,75,74.8,Damian Fronzaglia,41,Open,Single-ply,,,,,170,182.5,192.5,192.5,,,,,192.5,1,B
M,75,73.9,Todd Hibbard,34,Open,Raw,,,,,125,-132.5,-137.5,125,,,,,125,1,B
M,75,74.8,Damian Fronzaglia,41,Masters 40+,Single-ply,,,,,170,182.5,192.4,192.4,,,,,192.4,1,B
M,82.5,82,Mosbah Elkenany,37,Open,Single-ply,,,,,-190,200,205,205,,,,,205,1,B
M,100,98.5,Brian Burritt,39,Open,Single-ply,,,,,-200,-200,207.5,207.5,,,,,207.5,1,B
M,100,99.3,Jerry Kluft,71,Masters 70+,Single-ply,,,,,137.5,-143,-143,137.5,,,,,137.5,1,B
M,110,107.8,Peter Maynard,40,Masters 40+,Single-ply,,,,,-150,155,-165,155,,,,,155,1,B
M,110,109.4,Frederick J. Goldberg,47,Masters 40+,Raw,,,,,185,-227.5,-227.5,185,,,,,185,1,B
M,125,121.4,Skip Regan,54,Masters 50+,Single-ply,,,,,140,147.5,-155,147.5,,,,,147.5,1,B
M,125+,125.3,Jesse Green,39,Open,Single-ply,,,,,182.5,205,227.5,227.5,,,,,227.5,1,B
M,125+,156.2,Keith Tanner,19,Teen [18-19],Single-ply,,,,,-157.5,170,-182.5,170,,,,,170,1,B
F,67.5,65.3,Brittany Bell,17,High School Varsity,Single-ply,52.5,70,80,80,-42.5,-52.5,52.5,52.5,90,105,115,115,247.5,1,SBD
F,67.5,66.9,Jessica Schmidt,18,Collegiate,Single-ply,75,90,-105,90,42.5,-50,-50,42.5,-95,102.5,112.5,112.5,245,1,SBD
F,90,87.4,Carolyn Phillips,58,Masters 50+,Raw,107.5,115,-120,115,50,55,57.5,57.5,107.5,117.5,122.5,122.5,295,1,SBD
M,67.5,66.8,Justin Mederios,17,High School Varsity,Single-ply,137.5,142.5,-145,142.5,-90,-90,-90,-90,160,180,-187.5,180,232.5,1,SBD
M,75,74.6,Dean Mederios,17,High School Varsity,Single-ply,142.5,155,160,160,-90,100,105,105,190,200,215,215,480,1,SBD
M,82.5,82,Mosbah Elkenany,37,Open,Single-ply,-220,220,240,240,-190,200,205,205,200,220,225,225,670,1,SBD
M,82.5,79.5,Jeff Cunningham,19,Teen [18-19],Single-ply,152.5,-165,-165,152.5,120,127.5,-132.5,127.5,180,200,205,205,485,1,SBD
M,82.5,77.9,Mark Lee,21,Collegiate,Single-ply,167.5,-180,-180,167.5,-135,135,-137.5,135,170,180,-187.5,180,482.5,1,SBD
M,82.5,79.1,Chuck Hoddup,63,Masters 60+,Raw,-75,87.5,105,105,55,60,-67.5,60,110,137.5,-152.5,137.5,302.5,1,SBD
M,82.5,77.1,Tony Nicolini,67,Masters 60+,Single-ply,125,137.5,-145,137.5,77.5,85,-87.5,85,130,145,,145,367.5,1,SBD
M,90,89.8,Julian Ulvang,43,Open,Single-ply,240,247.5,255,255,180,187.5,-190,187.5,227.5,242.5,250,250,692.5,1,SBD
M,90,89.5,Logan Bush,33,Teen [14-15],Single-ply,220,-237.5,-237.5,220,-132.5,132.5,142.5,142.5,225,242.5,252.5,252.5,615,1,SBD
M,90,85.5,Nicholas Prisco,16,High School Varsity,Single-ply,130,137.5,-145,137.5,82.5,92.5,-100,92.5,160,172.5,182.5,182.5,412.5,1,SBD
M,90,89.8,Julian Ulvang,43,Masters 40+,Single-ply,242.5,247.5,255,255,180,187.5,-190,187.5,227.5,242.5,250,250,692.5,1,SBD
M,100,96.6,Jon Landau,36,Open,Single-ply,250,265,-275,265,185,-195,-200,185,255,270,-277.5,270,720,1,SBD
M,100,90.4,Matt Otero,27,Open,Single-ply,227.5,245,-265,245,162.5,-172.5,-172.5,162.5,240,260,-272.5,260,667.5,2,SBD
M,100,95,John Richardson,28,Open,Single-ply,207.5,-215,-215,207.5,135,152.5,165,165,197.5,207.5,215,215,587.5,3,SBD
M,100,97.6,Wole Ogundasi,21,Collegiate,Single-ply,170,-185,185,185,132.5,142.5,-147.5,142.5,227.5,250,255,255,582.5,1,SBD
M,100,93.6,Chris Edwards,21,Collegiate,Single-ply,-185,195,-205,195,-137.5,-137.5,137.5,137.5,220,230,-247.5,230,562.5,2,SBD
M,100,91.3,Jonathon Hernandez,20,Collegiate,Single-ply,152.5,167.5,-187.5,167.5,115,122.5,-132.5,122.5,197.5,-220,220,220,510,3,SBD
M,100,99.8,Bill Beekley,47,Masters 40+,Raw,217.5,-237.5,-237.5,217.5,145,-152.5,-152.5,145,227.5,-272.5,-272.5,227.5,590,1,SBD
M,110,102.5,Lenny Beir,24,Open,Single-ply,-130,-130,155,155,105,-112.5,-112.5,105,140,150,-160,150,410,1,SBD
M,110,103.9,Garrett Owens,20,Collegiate,Single-ply,202.5,210,220,220,140,145,150,150,225,237.5,250,250,620,1,SBD
M,110,108.2,Nick Hernandez,20,Collegiate,Single-ply,-187.5,187.5,200,200,65,,,65,227.5,240,252.5,252.5,517.5,2,SBD
M,110,108.1,Gabriel Reyes,23,Junior [20-23],Single-ply,-202.5,-202.5,-202.5,,-127.5,127.5,-142.5,127.5,227.5,242.5,-250,242.5,,DQ,SBD
M,110,107.8,Peter Maynard,40,Masters 40+,Single-ply,-160,160,175,175,-150,155,-165,155,160,170,182.5,182.5,512.5,1,SBD
M,125,118.7,Peter Bush,15,Open,Single-ply,-295,295,-317.5,295,175,215,-225,215,250,265,272.5,272.5,782.5,1,SBD
M,125,116.3,Rick Chavez,50,Open,Single-ply,277.5,295,310,310,165,-172.5,-172.5,165,247.5,257.5,262.5,262.5,737.5,1,SBD
M,125,114,Darryl Thomas,15,High School JV,Single-ply,142.5,-155,155,155,102.5,107.5,110,110,185,190,-200,190,455,1,SBD
M,125,116.3,Rick Chavez,50,Masters 50+,Single-ply,-277.5,295,310,310,165,-172.5,-172.5,165,247.5,257.5,262.5,262.5,737.5,1,SBD
M,125,114.5,Shawn Jones,27,Open,Raw,227.5,245,-255,245,142.5,155,162.5,162.5,250,-272.5,-272.5,250,657.5,1,SBD
M,125,115.7,Tim Burns,37,Open,Raw,210,-237.5,-237.5,210,165,-182.5,-182.5,165,217.5,237.5,-250,237.5,612.5,2,SBD
M,125+,153,Beau Moore #1,41,Open,Raw,310,-332.5,-332.5,310,242.5,-252.5,252.5,252.5,327.5,355,-365,355,917.5,1,SBD
M,125+,153,Beau Moore #1,41,Masters 40+,Raw,310,-332.5,-332.5,310,242.5,-252.5,252.5,252.5,327.5,355,-365,355,917.5,1,SBD
M,125+,137.8,Taylor Schinkel,18,Collegiate,Single-ply,130,-147.5,-147.5,130,107.5,115,120,120,175,182.5,207.5,207.5,457.5,1,SBD
