Place,Name,Sex,Event,Division,Equipment,BirthYear,State,BodyweightKg,Squat1Kg,Squat2Kg,Squat3Kg,Best3SquatKg,Bench1Kg,Bench2Kg,Bench3Kg,Best3BenchKg,Deadlift1Kg,Deadlift2Kg,Deadlift3Kg,Best3DeadliftKg,TotalKg
1,Ashley Remillard,F,SBD,FR-Jr,Raw,1995,NH,58.9,82.5,87.5,-92.5,87.5,42.5,45,50,50,90,97.5,105,105,242.5
2,Julia Matteson,F,SBD,FR-Jr,Raw,1995,MA,77.8,102.5,110,115,115,50,52.5,55,55,105,112.5,117.5,117.5,287.5
1,Julie Buelte,F,SBD,FR-M1a,Raw,1976,NH,77.5,125,135,140,140,55,60,62.5,62.5,130,137.5,142.5,142.5,345
2,Carol Morse,F,SBD,FR-M1a,Raw,1977,NH,53.6,72.5,80,85,85,45,47.5,50,50,90,95,102.5,102.5,237.5
1,Kelli Jackson,F,SBD,FR-M1b,Raw,1972,NH,116,127.5,135,140,140,52.5,57.5,-60,57.5,147.5,155,162.5,162.5,360
DQ,Renee Hetnandez,F,SBD,FR-M1b,Raw,1973,MA,63,52.5,57.5,62.5,62.5,-50,-50,-50,,80,85,-90,85,
1,Dianna Cotter,F,SBD,FR-M2a,Raw,1966,NH,51.4,70,77.5,82.5,82.5,52.5,55,57.5,57.5,102.5,110,117.5,117.5,257.5
2,Janet Ercolini,F,SBD,FR-M2a,Raw,1968,NH,94.9,80,90,100,100,55,60,-65,60,117.5,125,130,130,290
1,Nicolette Zeigler,F,SBD,FR-O,Raw,1994,NY,85.8,180,190,192.5,192.5,90,97.5,102.5,102.5,195,200,210,210,505
2,Victoria Cai,F,SBD,FR-O,Raw,1989,RI,56.5,107.5,115,-120,115,60,65,67.5,67.5,130,137.5,145,145,327.5
3,Shauna Staveley,F,SBD,FR-O,Raw,1985,MA,93.3,137.5,147.5,152.5,152.5,82.5,87.5,95,95,160,170,180,180,427.5
4,Emily Biberger,F,SBD,FR-O,Raw,1988,MA,70.8,122.5,130,132.5,132.5,67.5,72.5,75,75,142.5,152.5,157.5,157.5,365
5,Danielle Nguyen,F,SBD,FR-O,Raw,1989,MA,62,117.5,122.5,127.5,127.5,67.5,72.5,-75,72.5,120,125,130,130,330
6,Alisa Arakelian,F,SBD,FR-O,Raw,1981,MA,90.4,150,157.5,162.5,162.5,87.5,-92.5,-92.5,87.5,137.5,145,150,150,400
7,Hayley Fernald,F,SBD,FR-O,Raw,1990,MA,54.4,82.5,87.5,-90,87.5,-52.5,55,57.5,57.5,100,105,110,110,255
8,Jessica Burdick,F,SBD,FR-O,Raw,1989,MA,71,100,107.5,112.5,112.5,50,55,57.5,57.5,127.5,135,140,140,310
9,Desiree Everett,F,SBD,FR-O,Raw,1983,NH,93.1,-110,115,122.5,122.5,65,70,-72.5,70,150,162.5,165,165,357.5
10,Allison Ferreira,F,SBD,FR-O,Raw,1993,MA,78.4,85,90,95,95,50,55,57.5,57.5,120,130,137.5,137.5,290
11,Meghan Toler,F,SBD,FR-O,Raw,1986,NH,75,72.5,80,85,85,57.5,62.5,65,65,117.5,122.5,130,130,280
12,Jamie Pica,F,SBD,FR-O,Raw,1981,NH,64.5,72.5,80,-85,80,42.5,45,47.5,47.5,97.5,105,110,110,237.5
1,Adalaide Sylvester,F,SBD,FR-Y2,Raw,2009,NH,55.5,37.5,-42.5,-42.5,37.5,25,27.5,-30,27.5,62.5,67.5,72.5,72.5,137.5
1,Kyle Lambert,M,SBD,R-,Raw,1993,NH,80.1,110,117.5,122.5,122.5,82.5,87.5,-92.5,87.5,140,150,157.5,157.5,367.5
1,Davuth Kong,M,SBD,MR-Jr,Raw,1997,MA,72.3,182.5,190,197.5,197.5,-112.5,120,127.5,127.5,220,-227.5,-227.5,220,545
2,Daniel Lau,M,SBD,MR-Jr,Raw,1994,MA,100.6,192.5,205,215,215,112.5,120,125,125,200,215,220,220,560
3,Jason Conway,M,SBD,MR-Jr,Raw,1994,MA,114.6,180,190,197.5,197.5,137.5,145,152.5,152.5,192.5,205,215,215,565
1,Christopher Engebretson,M,SBD,MR-M1b,Raw,1969,MA,103.4,205,212.5,-217.5,212.5,135,140,-142.5,140,190,202.5,207.5,207.5,560
2,Kelly Dowd,M,SBD,MR-M1b,Raw,1972,NH,91,140,147.5,155,155,95,100,105,105,150,160,170,170,430
1,Jim Kathios,M,SBD,MR-M2b,Raw,1961,NH,91.4,185,195,-200,195,142.5,147.5,150,150,225,240,245,245,590
1,Scott Thurlow,M,SBD,MR-O,Raw,1993,MA,92.2,225,232.5,235,235,165,170,175,175,265,280,290,290,700
2,Nathan Landry,M,SBD,MR-O,Raw,1987,ME,71.5,170,180,190,190,137.5,150,-157.5,150,210,225,235,235,575
3,John Troiano,M,SBD,MR-O,Raw,1979,NH,92.1,192.5,210,212.5,212.5,157.5,165,-170,165,225,242.5,250,250,627.5
4,Bill Ryerson,M,SBD,MR-O,Raw,1983,NH,98.3,205,217.5,227.5,227.5,117.5,125,132.5,132.5,255,265,275,275,635
5,Evan Hoffman,M,SBD,MR-O,Raw,1989,MA,88.4,167.5,177.5,185,185,122.5,130,135,135,210,222.5,232.5,232.5,552.5
6,Josh Tang,M,SBD,MR-O,Raw,1990,MA,80.4,165,175,180,180,110,120,125,125,187.5,200,210,210,515
7,Eric Andrews,M,SBD,MR-O,Raw,1991,NH,92.8,185,190,197.5,197.5,130,135,140,140,190,200,210,210,547.5
8,Derek Worden,M,SBD,MR-O,Raw,1986,NH,135,175,190,200,200,105,112.5,-117.5,112.5,225,240,252.5,252.5,565
9,Joshua Shaw,M,SBD,MR-O,Raw,1990,NH,86.4,125,135,145,145,120,132.5,145,145,165,177.5,190,190,480
10,John Karwacki,M,SBD,MR-O,Raw,1988,ME,82.4,157.5,165,177.5,177.5,85,92.5,97.5,97.5,170,182.5,187.5,187.5,462.5
11,Mark Doherty,M,SBD,MR-O,Raw,1986,MA,107,152.5,162.5,-170,162.5,100,107.5,112.5,112.5,210,222.5,232.5,232.5,507.5
1,Eamon Gregory-Dowd,M,SBD,MR-T1,Raw,2002,NH,71.9,90,97.5,105,105,55,60,65,65,90,100,110,110,280
1,Matt Quirk,M,SBD,MR-T3,Raw,1999,NH,81.5,167.5,177.5,182.5,182.5,127.5,135,137.5,137.5,212.5,227.5,232.5,232.5,552.5
1,Brian Nee,M,BD,MR-M1b,Raw,1971,NH,127.8,,,,,115,125,-137.5,125,170,190,215,215,340
