Division,WeightClassKg,Place,Name,Team,BodyweightKg,Best3SquatKg,Best3BenchKg,Best3DeadliftKg,TotalKg,Equipment,Event,Sex
Boys,52,1,Jeremy Martinez,Robstown,51.26,156.49,79.38,185.97,421.84,Single-ply,SBD,M
Boys,52,2,Danny Ruiz,Zapata,51.71,149.69,79.38,167.83,396.89,Single-ply,SBD,M
Boys,52,3,Adrian Flores,San Antonio Holy Cross,51.62,151.95,70.31,163.29,385.55,Single-ply,SBD,M
Boys,52,4,Jose Hernandez,Corpus Christi West Oso,51.26,142.88,74.84,149.69,367.41,Single-ply,SBD,M
Boys,52,5,Ethan Bass,Ingleside,51.71,142.88,74.84,142.88,360.61,Single-ply,SBD,M
Boys,52,6,Brandon Fernandez,Poteet,46.99,129.27,81.65,140.61,351.53,Single-ply,SBD,M
Boys,52,7,Daniel Jeronimo,Hidalgo Early College,50.98,142.88,58.97,142.88,344.73,Single-ply,SBD,M
Boys,52,8,Isaac Martinez,Sinton,50.53,117.93,68.04,145.15,331.12,Single-ply,SBD,M
Boys,52,9,Juan Palomo,Rockport-Fulton,50.53,108.86,61.23,131.54,301.64,Single-ply,SBD,M
Boys,52,10,Gabriel Collins,Orange Grove,50.8,122.47,61.23,102.06,285.76,Single-ply,SBD,M
Boys,52,11,Rudy Sanchez,Somerset,49.17,90.72,52.16,124.74,267.62,Single-ply,SBD,M
Boys,56,1,Ivan Rosales,Columbus,54.7,167.83,95.25,179.17,442.25,Single-ply,SBD,M
Boys,56,2,Brendon Batteau,Rockport-Fulton,55.7,170.1,81.65,176.9,428.64,Single-ply,SBD,M
Boys,56,3,Austin Castillo,Sinton,54.7,142.88,97.52,165.56,405.97,Single-ply,SBD,M
Boys,56,4,Eli Luna,Somerset,55.52,142.88,68.04,138.35,349.27,Single-ply,SBD,M
Boys,56,5,Nocona Taylor,Orange Grove,55.61,124.74,63.5,161.03,349.27,Single-ply,SBD,M
Boys,56,6,Dalton Opperman,Columbus,55.25,127.01,81.65,127.01,335.66,Single-ply,SBD,M
Boys,56,7,Maximus Perez,Lytle,55.43,113.4,65.77,131.54,310.71,Single-ply,SBD,M
Boys,56,8,Fabian Apaez,Somerset,55.16,90.72,68.04,117.93,276.69,Single-ply,SBD,M
Boys,56,9,Brian Lazo,Crystal City,53.34,99.79,61.23,113.4,274.42,Single-ply,SBD,M
Boys,56,DQ,Austin Gonzalez,Robstown,55.79,,,,,Single-ply,SBD,M
Boys,56,DQ,Hunter Kohleffel,Columbus,53.89,127.01,63.5,,,Single-ply,SBD,M
Boys,56,DQ,Colton Bean,Devine,55.7,131.54,,,,Single-ply,SBD,M
Boys,60,1,Andres Ramos,Ingleside,59.87,240.4,111.13,217.72,569.26,Single-ply,SBD,M
Boys,60,2,Mike Barajas,Hidalgo Early College,59.24,210.92,136.08,210.92,557.92,Single-ply,SBD,M
Boys,60,3,Adrian Torres,Rio Hondo,59.24,158.76,133.81,170.1,462.66,Single-ply,SBD,M
Boys,60,4,Nathan Corpus,Cuero,58.88,154.22,108.86,190.51,453.59,Single-ply,SBD,M
Boys,60,5,Noe Herrera,Kingsville King,59.51,170.1,92.99,181.44,444.52,Single-ply,SBD,M
Boys,60,6,Zeke Rocha,Rio Hondo,59.87,158.76,113.4,151.95,424.11,Single-ply,SBD,M
Boys,60,7,Devin Cowen,Rockport-Fulton,59.24,151.95,70.31,190.51,412.77,Single-ply,SBD,M
Boys,60,8,Josue Tortu,Corpus Christi West Oso,58.51,163.29,79.38,167.83,410.5,Single-ply,SBD,M
Boys,60,9,Demetrios Monreal,Devine,59.51,147.42,92.99,158.76,399.16,Single-ply,SBD,M
Boys,60,10,Julian Rico,Somerset,59.42,156.49,95.25,142.88,394.63,Single-ply,SBD,M
Boys,67.5,1,Ismael Franco,Crystal City,65.95,219.99,124.74,224.53,569.26,Single-ply,SBD,M
Boys,67.5,2,Tyler Bush,Rio Hondo,65.32,204.12,133.81,206.38,544.31,Single-ply,SBD,M
Boys,67.5,3,Chance Marler,Victoria St. Joseph,67.13,217.72,104.33,215.46,537.51,Single-ply,SBD,M
Boys,67.5,4,Stephen Garza,Lytle,66.04,197.31,99.79,222.26,519.36,Single-ply,SBD,M
Boys,67.5,5,Dustin Torres,Beeville Jones,65.77,215.46,117.93,183.7,517.1,Single-ply,SBD,M
Boys,67.5,6,Daniel Tortu,Corpus Christi West Oso,63.5,206.38,113.4,188.24,508.02,Single-ply,SBD,M
Boys,67.5,7,Orlando Gutierrez,Crystal City,64.41,213.19,83.91,210.92,508.02,Single-ply,SBD,M
Boys,67.5,8,Justin Perez,San Antonio Holy Cross,66.5,197.31,88.45,213.19,498.95,Single-ply,SBD,M
Boys,67.5,9,Joseph Lopez,Lytle,67.13,163.29,115.67,217.72,496.68,Single-ply,SBD,M
Boys,67.5,10,Jose Fargason,Devine,67.13,181.44,113.4,199.58,494.42,Single-ply,SBD,M
Boys,67.5,11,Chris Velazquez,Geronimo Navarro,64.41,210.92,104.33,167.83,483.08,Single-ply,SBD,M
Boys,67.5,DQ,Cesar Uribe,Zapata,65.77,,,,,Single-ply,SBD,M
Boys,75,1,Luis Perales,Carrizo Springs,74.84,256.28,151.95,242.67,650.91,Single-ply,SBD,M
Boys,75,2,Andres Hernandez,Hidalgo Early College,74.84,226.8,142.88,222.26,591.94,Single-ply,SBD,M
Boys,75,3,John Reyes,Pearsall,73.12,208.65,122.47,258.55,589.67,Single-ply,SBD,M
Boys,75,4,Dominic Ramos,Rio Hondo,73.3,219.99,154.22,215.46,589.67,Single-ply,SBD,M
Boys,75,5,Steven Ramirez,Devine,73.35,231.33,133.81,224.53,589.67,Single-ply,SBD,M
Boys,75,6,Derrick Carroll,Beeville Jones,73.39,238.14,124.74,226.8,589.67,Single-ply,SBD,M
Boys,75,7,Patrick Prieto,Beeville Jones,73.94,235.87,129.27,224.53,589.67,Single-ply,SBD,M
Boys,75,8,Lucas Byrd,Devine,74.75,231.33,113.4,244.94,589.67,Single-ply,SBD,M
Boys,75,9,Roy DeLeon,Somerset,72.94,226.8,127.01,215.46,569.26,Single-ply,SBD,M
Boys,75,10,Alex Ortiz,Gonzales,70.76,226.8,136.08,183.7,546.58,Single-ply,SBD,M
Boys,75,11,Jared Cooper,Geronimo Navarro,72.48,199.58,113.4,213.19,526.17,Single-ply,SBD,M
Boys,75,12,Eric Gonzalez,Carrizo Springs,74.39,210.92,106.59,208.65,526.17,Single-ply,SBD,M
Boys,75,13,Cesar Gonzalez,Somerset,70.67,208.65,97.52,210.92,517.1,Single-ply,SBD,M
Boys,82.5,1,Anthony Estrada,Somerset,79.11,263.08,156.49,263.08,682.66,Single-ply,SBD,M
Boys,82.5,2,Robert Adame,San Antonio Holy Cross,81.28,258.55,176.9,244.94,680.39,Single-ply,SBD,M
Boys,82.5,3,Gaston Castellanos,Rio Hondo,80.65,260.82,154.22,242.67,657.71,Single-ply,SBD,M
Boys,82.5,4,Rudy Casarez,Beeville Jones,81.65,240.4,136.08,254.01,630.49,Single-ply,SBD,M
Boys,82.5,5,Michael Valle,Hidalgo Early College,82.1,240.4,136.08,235.87,612.35,Single-ply,SBD,M
Boys,82.5,6,Dylan Delgado,Somerset,78.47,251.74,133.81,217.72,603.28,Single-ply,SBD,M
Boys,82.5,7,Enrique Barron,Ingleside,80.47,240.4,115.67,244.94,601.01,Single-ply,SBD,M
Boys,82.5,8,Jared Fuhrken,Orange Grove,80.92,231.33,129.27,229.06,589.67,Single-ply,SBD,M
Boys,82.5,9,Meme Moreno,Somerset,81.28,249.48,127.01,204.12,580.6,Single-ply,SBD,M
Boys,82.5,10,Jesus Guatzozon,Port Isabel,79.83,219.99,129.27,208.65,557.92,Single-ply,SBD,M
Boys,82.5,11,José Saldaña,La Feria,81.92,226.8,111.13,195.04,532.97,Single-ply,SBD,M
Boys,90,1,Chris Madrigal,Beeville Jones,87.91,272.16,170.1,254.01,696.26,Single-ply,SBD,M
Boys,90,2,Barry Hernandez,Corpus Christi West Oso,88,267.62,165.56,244.94,678.12,Single-ply,SBD,M
Boys,90,3,Angel Rodríguez,Rio Hondo,88.09,260.82,190.51,226.8,678.12,Single-ply,SBD,M
Boys,90,4,Tristan Nino,Kingsville King,88.63,260.82,165.56,231.33,657.71,Single-ply,SBD,M
Boys,90,5,Jared Leal,Geronimo Navarro,88.18,249.48,138.35,256.28,644.1,Single-ply,SBD,M
Boys,90,6,Isaac Aleman,Hidalgo Early College,89.72,249.48,145.15,240.4,635.03,Single-ply,SBD,M
Boys,90,7,Justin Flores,Rio Hondo,87.36,260.82,151.95,199.58,612.35,Single-ply,SBD,M
Boys,90,8,Daniel Gonzalez,Kingsville King,87.45,231.33,140.61,215.46,587.4,Single-ply,SBD,M
Boys,90,9,Arnold Herrera,Somerset,82.92,233.6,124.74,226.8,585.13,Single-ply,SBD,M
Boys,90,10,Jacob Zepeda,Raymondville,88.63,226.8,129.27,229.06,585.13,Single-ply,SBD,M
Boys,90,11,Stephen Medrano,La Feria,86.91,215.46,140.61,226.8,582.87,Single-ply,SBD,M
Boys,90,DQ,Mario Mendoza,Carrizo Springs,88.63,258.55,,,,Single-ply,SBD,M
Boys,100,1,Aaron Puga,Beeville Jones,96.89,294.84,142.88,267.62,705.34,Single-ply,SBD,M
Boys,100,2,Nick Galvan,Beeville Jones,97.52,281.23,174.63,249.48,705.34,Single-ply,SBD,M
Boys,100,3,Raymond Casarez,San Antonio Holy Cross,96.62,276.69,154.22,251.74,682.66,Single-ply,SBD,M
Boys,100,4,Franco Arce,Zapata,99.25,267.62,131.54,258.55,657.71,Single-ply,SBD,M
Boys,100,5,Da'von Simmons,Crystal City,99.61,276.69,161.03,208.65,646.37,Single-ply,SBD,M
Boys,100,6,Lazaro Bernabe,Hidalgo Early College,99.61,263.08,147.42,222.26,632.76,Single-ply,SBD,M
Boys,100,7,Joseph Bueno,Somerset,94.62,263.08,122.47,238.14,623.69,Single-ply,SBD,M
Boys,100,8,Raul Fernandez,Rockport-Fulton,97.61,260.82,136.08,215.46,612.35,Single-ply,SBD,M
Boys,100,9,Eric Gutierrez,Robstown,98.34,247.21,142.88,222.26,612.35,Single-ply,SBD,M
Boys,100,10,Dayton Ball,Cuero,93.62,226.8,131.54,238.14,596.47,Single-ply,SBD,M
Boys,100,11,Tyler Crisp,Poteet,97.07,254.01,115.67,226.8,596.47,Single-ply,SBD,M
Boys,100,DQ,Jake Martinez,Rio Hondo,99.06,,,,,Single-ply,SBD,M
Boys,110,1,Jose Soliz,Orange Grove,108.68,308.44,217.72,240.4,766.57,Single-ply,SBD,M
Boys,110,2,Eddie Moreno,Somerset,109.77,285.76,195.04,265.35,746.16,Single-ply,SBD,M
Boys,110,3,Joey Rodriguez,Corpus Christi West Oso,108.41,278.96,158.76,274.42,712.14,Single-ply,SBD,M
Boys,110,4,Austen Flores,San Antonio Holy Cross,108.41,274.42,156.49,276.69,707.6,Single-ply,SBD,M
Boys,110,5,Tristian Rodriguez,Raymondville,109.77,276.69,151.95,251.74,680.39,Single-ply,SBD,M
Boys,110,6,Colton Barnett,Geronimo Navarro,104.24,233.6,136.08,238.14,607.81,Single-ply,SBD,M
Boys,110,7,Adam Gonzalez,Kingsville King,107.23,229.06,142.88,229.06,601.01,Single-ply,SBD,M
Boys,110,8,Logan Crane,Bandera,106.41,235.87,151.95,204.12,591.94,Single-ply,SBD,M
Boys,110,9,Arturo Guevara,La Feria,109.77,219.99,147.42,217.72,585.13,Single-ply,SBD,M
Boys,110,DQ,Matthew Castro,Carrizo Springs,108.41,281.23,,,,Single-ply,SBD,M
Boys,110,DQ,Emilio Alvarado,Crystal City,107.05,,,,,Single-ply,SBD,M
Boys,110,DQ,Rey Mendoza,Crystal City,107.68,244.94,,,,Single-ply,SBD,M
Boys,125,1,Austin Soto,Devine,124.01,283.5,213.19,272.16,768.84,Single-ply,SBD,M
Boys,125,2,Oscar Castillo,Pleasanton,124.74,317.51,190.51,238.14,746.16,Single-ply,SBD,M
Boys,125,3,Rogelio Perez,Rio Hondo,114.31,283.5,183.7,244.94,712.14,Single-ply,SBD,M
Boys,125,4,Eric Chapa,Zapata,122.92,272.16,154.22,249.48,675.85,Single-ply,SBD,M
Boys,125,5,Steve Covarrubias,Robstown,115.39,265.35,156.49,240.4,662.24,Single-ply,SBD,M
Boys,125,6,Troy Macias,Rio Hondo,119.11,251.74,158.76,233.6,644.1,Single-ply,SBD,M
Boys,125,7,Tyler Howard,Geronimo Navarro,123.65,249.48,151.95,233.6,635.03,Single-ply,SBD,M
Boys,125,8,Dylan Hatfield,Geronimo Navarro,122.38,256.28,142.88,204.12,603.28,Single-ply,SBD,M
Boys,125,9,Christian Arredondo,Devine,113.85,249.48,161.03,190.51,601.01,Single-ply,SBD,M
Boys,125,10,Ramon Sánchez,Hidalgo Early College,110.13,235.87,122.47,215.46,573.79,Single-ply,SBD,M
Boys,125,11,Brandon Orosco,Carrizo Springs,110.4,233.6,122.47,197.31,553.38,Single-ply,SBD,M
Boys,125,12,Michael Almedina,Zapata,117.84,213.19,115.67,224.53,553.38,Single-ply,SBD,M
Boys,125,DQ,James Woods,Somerset,124.19,,,,,Single-ply,SBD,M
Boys,125+,1,Joseph Peña #1,San Antonio Holy Cross,162.11,412.77,233.6,299.37,945.74,Single-ply,SBD,M
Boys,125+,2,Kaleb Pogue,Rockport-Fulton,131.63,340.19,174.63,249.48,764.3,Single-ply,SBD,M
Boys,125+,3,Sisto Pacheco,Pleasanton,129.64,306.17,192.78,238.14,737.09,Single-ply,SBD,M
Boys,125+,4,Andres Alaniz,Rio Hondo,130.73,283.5,165.56,238.14,687.19,Single-ply,SBD,M
Boys,125+,5,Diego Hernandez,Cuero,130.36,285.76,156.49,226.8,669.05,Single-ply,SBD,M
Boys,125+,6,Jacob Pace,Pleasanton,131.72,294.84,145.15,215.46,655.44,Single-ply,SBD,M
Boys,125+,7,Juan Licea,Gonzales,130.63,249.48,142.88,235.87,628.23,Single-ply,SBD,M
Boys,125+,8,Garrett Dietert,Geronimo Navarro,125.46,274.42,136.08,215.46,625.96,Single-ply,SBD,M
Boys,125+,9,Michael Moreno,Zapata,139.43,233.6,179.17,195.04,607.81,Single-ply,SBD,M
Boys,125+,DQ,Angel Salinas,Orange Grove,165.56,,,,,Single-ply,SBD,M
Boys,125+,DQ,Daniel Martinez,Beeville Jones,131.09,235.87,,,,Single-ply,SBD,M
Boys,125+,DQ,Jorge Torres,Raymondville,133.36,,,,,Single-ply,SBD,M
