Place,Name,Sex,Event,Division,WeightClassKg,Equipment,BirthYear,State,BodyweightKg,Squat1Kg,Squat2Kg,Squat3Kg,Best3SquatKg,Bench1Kg,Bench2Kg,Bench3Kg,Best3BenchKg,Deadlift1Kg,Deadlift2Kg,Deadlift3Kg,Best3DeadliftKg,TotalKg
1,Jodi Hastings,F,SBD,FR-M1,84,Raw,1978,MN,74.7,106.59,117.93,-122.47,117.93,65.77,-72.57,-72.57,65.77,129.27,140.61,147.42,147.42,331.12
1,Cindi Jaeger,F,SBD,FR-M1,84+,Raw,1971,WI,91.7,95.25,99.79,106.59,106.59,61.23,65.77,70.31,70.31,124.74,136.08,-142.88,136.08,312.98
2,Jennifer Dahl,F,SBD,FR-M1,84+,Raw,1976,WI,88.6,81.65,88.45,-95.25,88.45,-40.82,43.09,-47.63,43.09,104.33,-113.4,-113.4,104.33,235.87
DQ,Elizabeth Carpenter,F,SBD,FR-M1,84+,Raw,1974,MN,146.4,-104.33,-104.33,-104.33,,70.31,74.84,79.38,79.38,133.81,151.95,-165.56,151.95,
1,Joni Mach,F,SBD,FR-M2,72,Raw,1965,WI,68.4,99.79,-106.59,106.59,106.59,47.63,52.16,56.7,56.7,99.79,106.59,117.93,117.93,281.23
1,Jasmen Godfrey,F,SBD,FR-O,47,Raw,2005,WI,42.7,61.23,68.04,-72.57,68.04,34.02,36.29,-40.82,36.29,72.57,79.38,86.18,86.18,190.51
1,Jamie Donner,F,SBD,FR-O,57,Raw,1997,WI,56.3,90.72,95.25,-102.06,95.25,45.36,49.9,-54.43,49.9,120.2,-124.74,-124.74,120.2,265.35
1,Paige Perkins,F,SBD,FR-O,63,Raw,1999,WI,60.9,97.52,104.33,-108.86,104.33,52.16,56.7,58.97,58.97,124.74,131.54,136.08,136.08,299.37
1,Lillian Strehlow,F,SBD,FR-O,72,Raw,1996,WI,70.8,104.33,113.4,120.2,120.2,49.9,56.7,61.23,61.23,129.27,138.35,142.88,142.88,324.32
2,Esther Theisen,F,SBD,FR-O,72,Raw,1998,WI,65.9,106.59,120.2,129.27,129.27,52.16,56.7,61.23,61.23,106.59,115.67,124.74,124.74,315.25
3,Angela Jansen,F,SBD,FR-O,72,Raw,1981,WI,69.6,102.06,111.13,-117.93,111.13,52.16,54.43,-56.7,54.43,111.13,-120.2,120.2,120.2,285.76
4,Heather Grotjahn,F,SBD,FR-O,72,Raw,1979,WI,70.4,77.11,79.38,-81.65,79.38,47.63,-49.9,49.9,49.9,104.33,108.86,113.4,113.4,242.67
5,Jenna Wahl,F,SBD,FR-O,72,Raw,1993,MN,65.2,52.16,58.97,65.77,65.77,31.75,34.02,38.56,38.56,79.38,83.91,90.72,90.72,195.04
1,Courtney Bisinger,F,SBD,FR-O,84,Raw,1990,WI,83.1,-138.35,138.35,140.61,140.61,56.7,61.23,-65.77,61.23,156.49,172.37,-181.44,172.37,374.21
2,Jodi Hastings,F,SBD,FR-O,84,Raw,1978,MN,74.7,106.59,117.93,-122.47,117.93,65.77,-72.57,-72.57,65.77,129.27,140.61,147.42,147.42,331.12
3,Ashley Swanson,F,SBD,FR-O,84,Raw,1993,MN,74.5,-83.91,-83.91,83.91,83.91,58.97,63.5,-68.04,63.5,111.13,117.93,124.74,124.74,272.16
1,Susan Banaszewski,F,SBD,FR-O,84+,Raw,1994,MN,88,111.13,120.2,127.01,127.01,56.7,61.23,68.04,68.04,163.29,174.63,181.44,181.44,376.48
2,Andrea Pomerleau,F,SBD,FR-O,84+,Raw,1989,MN,105.3,102.06,-111.13,122.47,122.47,-56.7,65.77,72.57,72.57,90.72,104.33,-117.93,104.33,299.37
1,Jasmen Godfrey,F,SBD,R-SubJR,47,Raw,2005,WI,42.7,61.23,68.04,-72.57,68.04,34.02,36.29,-40.82,36.29,72.57,79.38,86.18,86.18,190.51
1,Paige Perkins,F,SBD,R-SubJR,63,Raw,1999,WI,60.9,97.52,104.33,-108.86,104.33,52.16,56.7,58.97,58.97,124.74,131.54,136.08,136.08,299.37
1,Elizabeth Dimick,F,SBD,R-SubJR,84,Raw,2003,WI,82,97.52,106.59,113.4,113.4,47.63,49.9,54.43,54.43,97.52,106.59,117.93,117.93,285.76
1,Coryn Davidson,F,SBD,R-SubJR,84+,Raw,2001,WI,115.5,120.2,129.27,138.35,138.35,54.43,56.7,-61.23,56.7,154.22,-170.1,-183.7,154.22,349.27
1,Tapenga Tegelman,F,SBD,SubJR,52,Single-ply,2003,WI,51.2,-102.06,102.06,-106.59,102.06,56.7,58.97,-61.23,58.97,104.33,111.13,120.2,120.2,281.23
1,Nicholas Griepentrog,M,SBD,MR-M1,74,Raw,1978,WI,70.8,233.6,244.94,272.16,272.16,140.61,149.69,-158.76,149.69,226.8,238.14,249.48,249.48,671.32
1,Norman Alston,M,SBD,MR-M1,93,Raw,1971,MN,90.1,-183.7,183.7,-192.78,183.7,136.08,-140.61,-140.61,136.08,224.53,-233.6,-233.6,224.53,544.31
1,Russell Stowell,M,SBD,MR-M1,120+,Raw,1973,WI,158.6,-219.99,219.99,-231.33,219.99,-111.13,120.2,129.27,129.27,192.78,201.85,215.46,215.46,564.72
1,Joe Theisen,M,SBD,MR-M2,120+,Raw,1965,WI,126.4,183.7,197.31,208.65,208.65,149.69,158.76,-165.56,158.76,215.46,229.06,-247.21,229.06,596.47
1,Terrance Jones,M,SBD,MR-O,66,Raw,1997,MN,65.7,-142.88,142.88,-165.56,142.88,-124.74,124.74,-138.35,124.74,-142.88,158.76,-185.97,158.76,426.38
1,Michael Brollini,M,SBD,MR-O,83,Raw,1995,WI,79.3,210.92,217.72,226.8,226.8,142.88,147.42,-156.49,147.42,247.21,256.28,-265.35,256.28,630.49
2,Hank Hanson,M,SBD,MR-O,83,Raw,2000,MN,76.1,176.9,183.7,188.24,188.24,99.79,108.86,113.4,113.4,179.17,188.24,197.31,197.31,498.95
1,Alexander Anderson,M,SBD,MR-O,93,Raw,1998,MN,91.8,-181.44,181.44,-185.97,181.44,127.01,-136.08,-136.08,127.01,249.48,-272.16,-272.16,249.48,557.92
1,Joshua Swanson,M,SBD,MR-O,105,Raw,1993,MN,101.3,210.92,224.53,-235.87,224.53,124.74,136.08,-140.61,136.08,256.28,272.16,283.5,283.5,644.1
2,Beau Hanson,M,SBD,MR-O,105,Raw,1982,WI,95.1,-136.08,136.08,-165.56,136.08,83.91,90.72,99.79,99.79,165.56,179.17,185.97,185.97,421.84
1,Ambrose Martell,M,SBD,MR-O,120+,Raw,1987,WI,149.6,231.33,242.67,254.01,254.01,183.7,192.78,201.85,201.85,219.99,-238.14,249.48,249.48,705.34
2,Nicholas Griepentrog,M,SBD,MR-O,120+,Raw,1978,WI,164.7,233.6,244.94,272.16,272.16,140.61,149.69,-158.76,149.69,226.8,238.14,249.48,249.48,671.32
3,Addam Hoogheem,M,SBD,MR-O,120+,Raw,1980,WI,149,142.88,170.1,-179.17,170.1,113.4,124.74,145.15,145.15,158.76,181.44,204.12,204.12,519.36
DQ,Christopher Gander,M,SBD,MR-O,120+,Raw,1989,WI,137.3,-185.97,-185.97,-185.97,,140.61,147.42,-151.95,147.42,229.06,240.4,-256.28,240.4,
1,Nicholas Kurtz,M,SBD,R-SubJR,59,Raw,2003,MN,53.3,88.45,-104.33,-104.33,88.45,61.23,70.31,-74.84,70.31,124.74,136.08,140.61,140.61,299.37
1,Adrian Herbst,M,SBD,R-SubJR,74,Raw,2000,WI,67.6,104.33,115.67,124.74,124.74,70.31,79.38,-86.18,79.38,151.95,170.1,183.7,183.7,387.82
2,Logan Zyduck,M,SBD,R-SubJR,74,Raw,2002,WI,67.3,108.86,129.27,142.88,142.88,65.77,77.11,-86.18,77.11,127.01,154.22,-167.83,154.22,374.21
3,Logan Poradish,M,SBD,R-SubJR,74,Raw,2005,WI,68.9,83.91,-90.72,-102.06,83.91,-74.84,83.91,-102.06,83.91,83.91,102.06,108.86,108.86,276.69
1,Carson Schroeder,M,SBD,R-SubJR,105,Raw,2001,WI,98.6,151.95,158.76,167.83,167.83,92.99,95.25,97.52,97.52,183.7,192.78,201.85,201.85,467.2
1,Kody Dudgeon,M,SBD,SubJR,83,Single-ply,1999,WI,78.3,-174.63,-185.97,185.97,185.97,83.91,92.99,-104.33,92.99,206.38,224.53,231.33,231.33,510.29
1,Trenton Kruger,M,SBD,SubJR,105,Single-ply,2000,MN,103.3,226.8,240.4,-254.01,240.4,83.91,-122.47,-129.27,83.91,195.04,210.92,-222.26,210.92,535.24
