Place,Name,WeightClassKg,Division,Country,BirthYear,BodyweightKg,Best3SquatKg,Best3BenchKg,Best3DeadliftKg,TotalKg,Event,Equipment,Sex
1,Saeed Moradi,53,Sub-Juniors,Iran,,52.9,130,70,150,350,SBD,Single-ply,M
2,Awlad Thani Al Khattab,53,Sub-Juniors,Oman,1998,52.4,140,55,125,320,SBD,Single-ply,M
3,Mustafa Al-Ogaili,53,Sub-Juniors,Iraq,1996,52.3,120,72.5,125,317.5,SBD,Single-ply,M
1,Regie Ramirez,53,Juniors,Philippines,1993,52.6,200,112.5,217.5,530,SBD,Single-ply,M
1,Ali Al Lami,59,Sub-Juniors,Iraq,1996,58.4,180,110,182.5,472.5,SBD,Single-ply,M
DQ,Mohammadreza Ahmadi,59,Sub-Juniors,Iran,,58.4,170,102.5,195,,SBD,Single-ply,M
1,Chun-Lin Wang,59,Juniors,Taiwan,1990,58.4,245,135,230,610,SBD,Single-ply,M
2,Ahmed Al-Masslawi,59,Juniors,Iraq,1990,,195,125,192.5,512.5,SBD,Single-ply,M
1,Esmaeil Tavakoli,59,Open,Iran,,59,200,85,190,475,SBD,Single-ply,M
1,Abdolreza Rabiee,59,Masters 1,Iran,,59,170,100,170,440,SBD,Single-ply,M
1,Jomeh Assadpour,59,Masters 2,Iran,,58,120,72.5,140,332.5,SBD,Single-ply,M
1,Hidetoshi Marumoto,59,Masters 3,Japan,1947,57.7,180,108,173,461,SBD,Single-ply,M
1,Sheng-Fu Li,66,Sub-Juniors,Taiwan,1995,64.3,237.5,155,225,617.5,SBD,Single-ply,M
DQ,Mehdi Alinaghian,66,Sub-Juniors,Iran,,66,165,122.5,180,,SBD,Single-ply,M
1,Yahya Al Kiyumi,66,Juniors,Oman,1991,63.5,200,165,205,570,SBD,Single-ply,M
1,Tsung-Ting Hsieh,66,Open,Taiwan,1982,64.3,255,211,265,731,SBD,Single-ply,M
2,Seyed Ahmad Ahmadzadeh,66,Open,Iran,,65.6,270,145,240,655,SBD,Single-ply,M
1,Mozdurshetabi Morteza Momozdur Shetabi,66,Masters 1,Iran,,65.7,202.5,122.5,207.5,532.5,SBD,Single-ply,M
DQ,Hironori Niwa,66,Masters 2,Japan,1961,65.5,,120,220,,SBD,Single-ply,M
1,Ali Heydar Sagheb,66,Masters 4,Iran,,65,120,80,150,350,SBD,Single-ply,M
1,Mehdi Mohammadparast,74,Sub-Juniors,Iran,1997,73.3,160,105,175,440,SBD,Single-ply,M
1,Omar Al Zakwani,74,Juniors,Oman,1992,72.9,232.5,162.5,242.5,637.5,SBD,Single-ply,M
2,Hussein Madhloom,74,Juniors,Iraq,1990,72.1,225,155,252.5,632.5,SBD,Single-ply,M
3,Saed Alhashemi,74,Juniors,Oman,1992,73.3,210,147.5,190,547.5,SBD,Single-ply,M
1,Lung-Hsin Huang,74,Open,Taiwan,1983,73.8,282.5,210,307.5,800,SBD,Single-ply,M
2,Hossein Rostami,74,Open,Iran,,73.5,275,197.5,240,712.5,SBD,Single-ply,M
1,Nematallah Hosseinzadeh,74,Masters 1,Iran,,72.5,205,125,190,520,SBD,Single-ply,M
1,Ramezan Ali Ghorbani,74,Masters 2,Iran,,73.1,170,70,190,430,SBD,Single-ply,M
1,Ramezan Ali Moradi,74,Masters 3,Iran,,72,140,97.5,137.5,375,SBD,Single-ply,M
2,Ali Abdollahzadeh,74,Masters 3,Iran,,72.7,175,60,175,410,SBD,Single-ply,M
1,Mitsuru Osawa,74,Masters 4,Japan,1941,73.1,175,115,160,450,SBD,Single-ply,M
2,Mohammad Ebrahim Movasaghi,74,Masters 4,Iran,,69.2,75,45,130,250,SBD,Single-ply,M
1,Mohammad Abdollahzadeh,83,Sub-Juniors,Iran,,79.7,200,150,220,570,SBD,Single-ply,M
2,Pouria Mohammadparast,83,Sub-Juniors,Iran,1997,82.7,160,80,150,390,SBD,Single-ply,M
1,Chalak Ali,83,Juniors,Iraq,1992,79.5,270,175,255,700,SBD,Single-ply,M
2,Mohammed Aulad Thani,83,Juniors,Oman,1990,81.5,252.5,167.5,242.5,662.5,SBD,Single-ply,M
3,Clark Cruz,83,Juniors,Philippines,1994,82.9,235,140,245,620,SBD,Single-ply,M
1,Faisal Ahmed Obaid Al Ghais Al Zaabi,83,Open,UAE,1978,81.5,200,170,170,540,SBD,Single-ply,M
1,Alinaghi Fathi,83,Masters 1,Iran,,81.7,250,150,250,650,SBD,Single-ply,M
2,Morteza Motaghian,83,Masters 1,Iran,,78.6,237.5,155,180,572.5,SBD,Single-ply,M
1,Makoto Yamaguchi,83,Masters 2,Japan,1963,82.2,260,155,240,655,SBD,Single-ply,M
2,Reza Jafari,83,Masters 2,Iran,,78,210,115,180,505,SBD,Single-ply,M
1,Toshio Kitano,83,Masters 3,Japan,1946,82.7,230,100,245,575,SBD,Single-ply,M
DQ,Majid Zatparvar,83,Masters 3,Iran,,,,,,,SBD,Single-ply,M
1,Mohammad Hossein Daneshvar,83,Masters 4,Iran,,80.6,100,55,130,285,SBD,Single-ply,M
1,Tohid Nasiri,93,Sub-Juniors,Iran,,92.5,220,170,270,660,SBD,Single-ply,M
1,Mohammadreza Barkhordar,93,Juniors,Iran,,92,280,195,300,775,SBD,Single-ply,M
2,Salim Aulad Thani,93,Juniors,Oman,1992,91.2,292.5,157.5,282.5,732.5,SBD,Single-ply,M
3,Tomoyuki Ichino,93,Juniors,Japan,1990,91.6,270,170,255,695,SBD,Single-ply,M
4,Raed Adeelah,93,Juniors,Iraq,1992,89.4,240,180,250,670,SBD,Single-ply,M
5,Aldrin Caparas,93,Juniors,Philippines,1993,92.3,247.5,165,217.5,630,SBD,Single-ply,M
2,Alireza Rezai,93,Open,Iran,,91.9,320,212.5,285,817.5,SBD,Single-ply,M
1,Mohammadreza Khosravi,93,Masters 1,Iran,,92.3,220,195,227.5,642.5,SBD,Single-ply,M
2,Sukh-Ochir Yura,93,Masters 1,Mongolia,1970,91.6,255,150,210,615,SBD,Single-ply,M
DQ,Jabbar Ali Haji Gholizadeh,93,Masters 2,Iran,1953,86,205,150,210,,SBD,Single-ply,M
1,Valizadeh Hossein Majidc Zatparvar,93,Masters 3,Iran,,83.1,150,115,165,430,SBD,Single-ply,M
1,Abbas Rohani,93,Masters 4,Iran,,92.5,70,55,90,215,SBD,Single-ply,M
DQ,Hossein Karimi,105,Sub-Juniors,Iran,1995,,,,,,SBD,Single-ply,M
2,Mohammed Taha,105,Sub-Juniors,Iraq,1995,101.3,220,130,200,550,SBD,Single-ply,M
1,Mostafa Ranjbar,105,Juniors,Iran,,104.7,340,220,331,891,SBD,Single-ply,M
2,Sen Yang,105,Juniors,Taiwan,1994,104.1,325,220,305,850,SBD,Single-ply,M
3,Alireza Jahanshahi,105,Juniors,Iran,,99.3,320,180,300,800,SBD,Single-ply,M
4,Cheng-Fong Su,105,Juniors,Taiwan,1993,97.7,250,157.5,270,677.5,SBD,Single-ply,M
5,Brandon Cueto,105,Juniors,Philippines,1991,98.4,225,142.5,220,587.5,SBD,Single-ply,M
6,Qais Al Hasni,105,Juniors,Oman,1992,104,210,100,205,515,SBD,Single-ply,M
1,Mostafa Yazdani,105,Open,Iran,,98.6,315,207.5,332,854.5,SBD,Single-ply,M
2,Naser Azizi,105,Open,Iran,,103,310,207.5,300,817.5,SBD,Single-ply,M
3,Issa Al Hasni,105,Open,Oman,1989,101.5,300,200,260,760,SBD,Single-ply,M
1,Alireza Norouzi,105,Masters 1,Iran,,100.2,255,175,281,711,SBD,Single-ply,M
2,Basman Mohammed,105,Masters 1,Iraq,1969,104.1,265,100,200,565,SBD,Single-ply,M
1,Akbar Bahmanyar,105,Masters 2,Iran,,100.5,180,150,205,535,SBD,Single-ply,M
1,Peyman Nejhadi,120,Sub-Juniors,Iran,,111.2,255,165,260,680,SBD,Single-ply,M
2,Ahmed Alsaeegh,120,Sub-Juniors,Iraq,1995,114.4,220,145,200,565,SBD,Single-ply,M
1,Raymond Debuque,120,Juniors,Philippines,1993,118.5,240,200,247.5,687.5,SBD,Single-ply,M
2,Ali Maleki,120,Juniors,Iran,,114.5,265,172.5,245,682.5,SBD,Single-ply,M
1,Majid Dalir,120,Open,Iran,,118.2,380,250,300,930,SBD,Single-ply,M
DD,Chimedtseren Bataa,120,Open,Mongolia,1981,112.8,300,270,250,,SBD,Single-ply,M
1,Abbas Golestani,120,Masters 1,Iran,,116.5,305,217.5,270,792.5,SBD,Single-ply,M
2,Oday Al-Janabi,120,Masters 1,Iraq,1966,108.5,140,140,160,440,SBD,Single-ply,M
1,Masoud Bakhtiari,120,Masters 2,Iran,,113.2,190,110,186,486,SBD,Single-ply,M
1,Mohamadreza Fardin,120,Masters 3,Iran,,105.2,80,60,120,260,SBD,Single-ply,M
1,Orutl Arash,120+,Sub-Juniors,Iran,,142.3,245,185,235,665,SBD,Single-ply,M
1,Ahmad Mehrabizadeh,120+,Juniors,Iran,,120.1,300,217.5,270,787.5,SBD,Single-ply,M
2,Muntadher Al-Krizi,120+,Juniors,Iraq,1992,137,330,155,280,765,SBD,Single-ply,M
1,Mojtaba Maleki,120+,Open,Iran,,145.1,397.5,255,340,992.5,SBD,Single-ply,M
2,Chien-Hsiung Chao,120+,Open,Taiwan,1969,146.1,315,215,290,820,SBD,Single-ply,M
3,Aida Almandhari,120+,Open,Oman,1985,125.9,320,200,265,785,SBD,Single-ply,M
DQ,Mehdi Mafi Gholami,120+,Open,Iran,,136.6,,,,,SBD,Single-ply,M
1,Kadhim Azeez,120+,Masters 2,Iraq,1957,124.8,145,110,150,405,SBD,Single-ply,M
DQ,Mohammad Hossein Zareipour,120+,Masters 3,Iran,,137,,85,140,,SBD,Single-ply,M
