Place,Sex,Name,Event,Division,WeightClassKg,Equipment,State,BodyweightKg,Squat1Kg,Squat2Kg,Squat3Kg,Best3SquatKg,Bench1Kg,Bench2Kg,Bench3Kg,Best3BenchKg,Deadlift1Kg,Deadlift2Kg,Deadlift3Kg,Best3DeadliftKg,TotalKg,BirthYear
DQ,M,Ryan Gill,B,M-M1a,120,Single-ply,PA,118.5,,,,,-275,-275,-277.5,,,,,,,1976
DQ,M,Jake Heglar,B,M-O,120,Single-ply,VA,118.9,,,,,-270,-272.5,-272.5,,,,,,,1979
3,M,Jeff McDaniel,B,MR-O,93,Raw,PA,91.9,,,,,182.5,-195,195,195,,,,,195,1981
DQ,F,Morgan Lepre,B,FR-T3,84+,Raw,PA,96.9,,,,,-65,-65,-65,,,,,,,1996
1,M,Alex Pak,SBD,M-Jr,66,Single-ply,PA,63.5,135,142.5,150,150,87.5,-95,95,95,170,187.5,-200,187.5,432.5,1994
1,M,Thomas J Conway,SBD,M-M3b,74,Single-ply,PA,71.7,117.5,127.5,-137.5,127.5,-62.5,62.5,67.5,67.5,167.5,182.5,192.5,192.5,387.5,1947
1,M,Michael Gourley,SBD,M-O,105,Single-ply,PA,101.3,-220,225,230,230,185,190,195,195,220,232.5,242.5,242.5,667.5,1987
1,M,Matthew Generotti,SBD,MR-Jr,83,Raw,PA,81.5,185,195,200,200,125,130,-132.5,130,227.5,240,255,255,585,1992
2,M,Charles Courtney,SBD,MR-Jr,83,Raw,PA,81.8,192.5,-205,205,205,125,-132.5,132.5,132.5,237.5,247.5,-250,247.5,585,1994
3,M,Jordan Galida,SBD,MR-Jr,83,Raw,PA,82.1,172.5,182.5,192.5,192.5,120,125,-127.5,125,205,217.5,227.5,227.5,545,1993
4,M,John Luczkovich,SBD,MR-Jr,83,Raw,PA,80,165,175,185,185,105,112.5,-115,112.5,205,220,230,230,527.5,1995
5,M,Nicholas Testa,SBD,MR-Jr,83,Raw,PA,79,137.5,150,-162.5,150,120,127.5,130,130,197.5,-212.5,-212.5,197.5,477.5,1993
1,M,Phillip Herndon,SBD,MR-Jr,93,Raw,PA,90.7,235,-247.5,-247.5,235,142.5,152.5,155,155,237.5,252.5,-262.5,252.5,642.5,1995
2,M,Shane Venesky,SBD,MR-Jr,93,Raw,PA,92.5,182.5,200,-205,200,107.5,115,-127.5,115,227.5,245,-262.5,245,560,1992
3,M,John Myslinski,SBD,MR-Jr,93,Raw,PA,87,140,150,160,160,125,130,-135,130,202.5,217.5,227.5,227.5,517.5,1993
4,M,Joe Winkeler,SBD,MR-Jr,93,Raw,VA,88.8,130,142.5,-150,142.5,97.5,-102.5,102.5,102.5,170,185,-190,185,430,1993
1,M,Michael Mossbrook,SBD,MR-Jr,105,Raw,PA,101.2,167.5,182.5,192.5,192.5,112.5,122.5,130,130,210,225,235,235,557.5,1992
1,M,Jimmy Nottingham,SBD,MR-Jr,120,Raw,NJ,119.4,215,235,240,240,127.5,-140,140,140,262.5,280,-295,280,660,1993
1,M,Darren Nemow,SBD,MR-M1a,93,Raw,NJ,91.8,205,227.5,230,230,132.5,137.5,145,145,227.5,250,-252.5,250,625,1973
2,M,Ty Wagerle,SBD,MR-M1a,93,Raw,PA,92.8,195,210,-215,210,127.5,135,140,140,242.5,255,262.5,262.5,612.5,1976
1,M,Matt Bernstein,SBD,MR-M1a,105,Raw,NJ,103.4,142.5,157.5,160,160,122.5,140,-142.5,140,205,215,230,230,530,1973
1,M,Mike Cagliola,SBD,MR-M1b,74,Raw,PA,74,182.5,192.5,-200,192.5,137.5,145,147.5,147.5,205,215,-222.5,215,555,1970
1,M,G. Michael Shirey,SBD,MR-M2a,105,Raw,PA,104.2,182.5,197.5,215,215,115,127.5,137.5,137.5,215,250,260,260,612.5,1964
1,M,William Garman,SBD,MR-M3b,83,Raw,PA,83,-100,100,107.5,107.5,-65,70,-75,70,150,160,170,170,347.5,1950
1,M,Charles King,SBD,MR-M3b,93,Raw,PA,93,80,90,100,100,90,102.5,-115,102.5,135,142.5,150,150,352.5,1950
1,M,Paul Griffith,SBD,MR-M4a,74,Raw,PA,71.1,122.5,141,,141,62.5,70,-75,70,125,145,-150,145,356,1945
1,M,Bob Trotta,SBD,R-MLO,120,Raw,NJ,109.9,182.5,197.5,207.5,207.5,142.5,152.5,160,160,205,222.5,232.5,232.5,600,1987
1,M,William Fluck,SBD,R-MLO,120+,Raw,PA,147.4,255,-272.5,272.5,272.5,150,-155,-155,150,255,-272.5,-272.5,255,677.5,1985
1,M,Joe Nguyen,SBD,MR-O,66,Raw,PA,65.7,165,175,182.5,182.5,92.5,100,102.5,102.5,185,197.5,202.5,202.5,487.5,1988
1,M,Eric Townsley,SBD,MR-O,74,Raw,PA,69.3,175,187.5,192.5,192.5,137.5,145,-152.5,145,212.5,222.5,232.5,232.5,570,1977
2,M,Andrew Hatashima,SBD,MR-O,74,Raw,PA,72.1,130,140,150,150,97.5,102.5,107.5,107.5,152.5,167.5,180,180,437.5,1989
3,M,Matthew Spiech,SBD,MR-O,74,Raw,PA,71.7,127.5,137.5,142.5,142.5,82.5,92.5,97.5,97.5,157.5,172.5,182.5,182.5,422.5,1986
4,M,DJ Pascone,SBD,MR-O,74,Raw,PA,71.7,127.5,137.5,-142.5,137.5,77.5,82.5,85,85,157.5,170,175,175,397.5,1985
DQ,M,Matt Hastie,SBD,MR-O,83,Raw,PA,82.8,-275.5,-275.5,-275.5,,97.5,-130,,97.5,225,-290,,225,,1969
1,M,Phillip Herndon,SBD,MR-O,93,Raw,PA,90.7,235,-247.5,-247.5,235,142.5,152.5,155,155,237.5,252.5,-262.5,252.5,642.5,1995
2,M,Darren Nemow,SBD,MR-O,93,Raw,NJ,91.8,205,227.5,230,230,132.5,137.5,145,145,227.5,250,-252.5,250,625,1973
3,M,Mark Jones,SBD,MR-O,93,Raw,PA,92.1,200,210,-215,210,160,167.5,170,170,-232.5,232.5,-235,232.5,612.5,1967
4,M,Chris Raymond,SBD,MR-O,93,Raw,PA,91,205,222.5,-230,222.5,127.5,137.5,142.5,142.5,-242.5,242.5,-265,242.5,607.5,1989
5,M,Jeff Hare,SBD,MR-O,93,Raw,PA,91.8,-215,215,-230,215,142.5,-147.5,-147.5,142.5,192.5,205,220,220,577.5,1986
6,M,Colin McTamany,SBD,MR-O,93,Raw,PA,91.2,170,182.5,187.5,187.5,127.5,132.5,137.5,137.5,215,227.5,232.5,232.5,557.5,1992
1,M,Cody Miller,SBD,MR-O,105,Raw,PA,104.6,230,240,255,255,175,187.5,192.5,192.5,250,275,-280,275,722.5,1990
2,M,Bryon Schaeffer,SBD,MR-O,105,Raw,PA,103.7,205,220,232.5,232.5,127.5,135,142.5,142.5,250,265,280,280,655,1979
3,M,Aaron Utermahlen,SBD,MR-O,105,Raw,PA,103.2,205,215,227.5,227.5,142.5,155,160,160,215,240,250,250,637.5,1977
4,M,Brian Karakaedos,SBD,MR-O,105,Raw,PA,104.1,192.5,212.5,-225,212.5,130,-140,-140,130,245,-265,-265,245,587.5,1991
5,M,Brad Kull,SBD,MR-O,105,Raw,PA,104.2,190,-195,-195,190,120,-125,-125,120,195,205,-210,205,515,1990
1,M,Joshua Corby,SBD,MR-O,120,Raw,PA,119,202.5,215,-227.5,215,127.5,140,145,145,225,245,-250,245,605,1990
2,M,Bob Trotta,SBD,MR-O,120,Raw,NJ,109.9,182.5,197.5,207.5,207.5,142.5,152.5,160,160,205,222.5,232.5,232.5,600,1987
3,M,Matthew Romig,SBD,MR-O,120,Raw,PA,113.5,200,210,217.5,217.5,125,130,-137.5,130,230,245,-257.5,245,592.5,1991
1,M,John Haughney,SBD,MR-O,120+,Raw,PA,125.1,257.5,267.5,277.5,277.5,185,190,195,195,310,322.5,327.5,327.5,800,1986
2,M,William Fluck,SBD,MR-O,120+,Raw,PA,147.4,255,-272.5,272.5,272.5,150,-155,-155,150,255,-272.5,-272.5,255,677.5,1985
3,M,Hubert Wojnar,SBD,MR-O,120+,Raw,PA,137.4,-160,160,167.5,167.5,140,150,-155,150,205,217.5,-227.5,217.5,535,1990
1,M,Graham Payne-Reichert,SBD,MR-T1,59,Raw,PA,54.4,125,-137.5,-137.5,125,52.5,57.5,-62.5,57.5,125,137.5,-140,137.5,320,2000
1,M,Mike Campanelli,SBD,MR-T2,66,Raw,NJ,62.2,-90,102.5,-110,102.5,45,65,75,75,122.5,145,165,165,342.5,1998
1,M,Nicholas Chludzinski,SBD,MR-T2,83,Raw,PA,77.1,-190,190,-205,190,105,115,-127.5,115,197.5,-227.5,-227.5,197.5,502.5,1998
1,M,Mason Grohoski,SBD,MR-T2,93,Raw,PA,93,127.5,140,150,150,112.5,-120,-125,112.5,175,185,-192.5,185,447.5,1999
1,M,Ian Jones,SBD,MR-T3,74,Raw,PA,73.2,182.5,190,197.5,197.5,107.5,-115,-120,107.5,205,217.5,225,225,530,1997
1,M,Min Lee,SBD,MR-T3,83,Raw,PA,77,170,180,190,190,115,122.5,127.5,127.5,195,215,227.5,227.5,545,1996
1,M,Nate Dorfman,SBD,MR-T3,93,Raw,PA,92.2,187.5,200,202.5,202.5,110,115,-117.5,115,202.5,215,-227.5,215,532.5,1996
2,M,Joseph Lopomo,SBD,MR-T3,93,Raw,NJ,87.3,142.5,147.5,-160,147.5,115,120,-122.5,120,177.5,-182.5,185,185,452.5,1996
1,M,Bryan Darling,SBD,MR-T3,105,Raw,MD,104.8,197.5,-205,210,210,140,147.5,155,155,207.5,217.5,230,230,595,1996
1,M,Joseph Frengel,SBD,M-T3,105,Single-ply,PA,94.5,235,-250,-250,235,-165,165,-172.5,165,237.5,245,-250,245,645,1997
1,F,Lia Ranalli,SBD,FR-Jr,43,Raw,PA,42.8,60,65,70,70,32.5,37.5,42.5,42.5,80,87.5,92.5,92.5,205,1994
1,F,Genevieve Cohen,SBD,FR-Jr,57,Raw,PA,56.5,97.5,105,-110,105,52.5,60,65,65,120,130,137.5,137.5,307.5,1993
1,F,Kendra Miller,SBD,FR-Jr,63,Raw,PA,61.6,127.5,135,140,140,60,65,-70,65,147.5,155,162.5,162.5,367.5,1992
2,F,Rosalie Hutson,SBD,FR-Jr,63,Raw,PA,60.3,102.5,107.5,112.5,112.5,47.5,50,-55,50,107.5,117.5,122.5,122.5,285,1995
1,F,Emily Krysa,SBD,FR-Jr,72,Raw,PA,72,120,127.5,137.5,137.5,55,60,62.5,62.5,137.5,147.5,150,150,350,1992
1,F,Pamela Scarano,SBD,FR-M1b,57,Raw,PA,56.4,-57.5,60,-62.5,60,30,32.5,-35,32.5,87.5,92.5,100,100,192.5,1967
1,F,Caitlin Chin,SBD,FR-O,52,Raw,PA,48.7,85,92.5,97.5,97.5,52.5,57.5,-62.5,57.5,-115,-115,117.5,117.5,272.5,1990
2,F,Alyssa DiNatale,SBD,FR-O,52,Raw,PA,51.8,60,70,75,75,35,40,-42.5,40,72.5,87.5,92.5,92.5,207.5,1989
1,F,Lauren Roseman,SBD,FR-O,57,Raw,PA,56.3,112.5,117.5,120,120,70,80,-82.5,80,137.5,142.5,147.5,147.5,347.5,1979
2,F,Stefani Polifrone,SBD,FR-O,57,Raw,NJ,52.9,87.5,97.5,105,105,52.5,60,-67.5,60,140,147.5,155,155,320,1990
3,F,Genevieve Cohen,SBD,FR-O,57,Raw,PA,56.5,97.5,105,-110,105,52.5,60,65,65,120,130,137.5,137.5,307.5,1993
1,F,Jennifer Varano,SBD,FR-O,63,Raw,PA,59.3,107.5,115,-122.5,115,70,75,-80,75,125,132.5,135,135,325,1981
2,F,Keanne Henry,SBD,FR-O,63,Raw,MD,61.4,95,105,107.5,107.5,62.5,67.5,70,70,125,140,-147.5,140,317.5,1977
3,F,Colie Pascone,SBD,FR-O,63,Raw,PA,62.5,97.5,105,107.5,107.5,62.5,67.5,-70,67.5,125,135,137.5,137.5,312.5,1982
1,F,Justine Olsommer,SBD,FR-O,72,Raw,PA,71.1,90,97.5,-107.5,97.5,47.5,52.5,57.5,57.5,127.5,137.5,150,150,305,1991
2,F,Devon Treptor,SBD,FR-O,72,Raw,MD,66.7,105,110,-115,110,50,55,57.5,57.5,125,132.5,-140,132.5,300,1983
1,F,Ro Sieber,SBD,FR-O,84,Raw,NJ,80.6,125,130,135,135,67.5,72.5,-75,72.5,152.5,160,-165,160,367.5,1986
1,F,Sarah Brenner #1,SBD,FR-O,84+,Raw,PA,125.6,165,-185,187.5,187.5,75,82.5,90,90,170,187.5,200,200,477.5,1990
2,F,Leslie Callahan,SBD,FR-O,84+,Raw,PA,100.7,145,152.5,157.5,157.5,77.5,82.5,87.5,87.5,157.5,170,-182.5,170,415,1977
3,F,Courtney Lynch,SBD,FR-O,84+,Raw,PA,100.6,140,150,-152.5,150,72.5,75,-77.5,75,175,182.5,187.5,187.5,412.5,1986
DQ,F,Morgan Lepre,SBD,FR-T3,84+,Raw,PA,96.9,112.5,120,122.5,122.5,-65,-65,-65,,125,140,-150,140,,1996
