Division,WeightClassKg,Place,Name,Team,BodyweightKg,Best3SquatKg,Best3BenchKg,Best3DeadliftKg,TotalKg,Equipment,Event,Sex
Boys,56,1,Echo Jones,Strawn,51.8,149.69,72.57,181.44,403.7,Single-ply,SBD,M
Boys,56,2,Jace Duncan,Mineral Wells,51.94,136.08,81.65,127.01,344.73,Single-ply,SBD,M
Boys,56,3,Carlos Villanueva,Strawn,51.8,131.54,65.77,122.47,319.78,Single-ply,SBD,M
Boys,56,4,Dennis Morales,Sidney,54.43,83.91,,90.72,174.63,Single-ply,SD,M
Boys,60,1,Keith Ray,Stephenville,59.51,163.29,90.72,170.1,424.11,Single-ply,SBD,M
Boys,60,1,Franklin Lopez,Millsap,55.88,136.08,52.16,124.74,312.98,Single-ply,SBD,M
Boys,60,2,Darius Jones,Dallas Life Oak Cliff,59.51,136.08,65.77,149.69,351.53,Single-ply,SBD,M
Boys,60,2,Darius Jones,Dallas Life Oak Cliff,59.51,136.08,65.77,149.69,351.53,Single-ply,SBD,M
Boys,60,2,Thomas Corrigan,Seymour,56.02,113.4,61.23,124.74,299.37,Single-ply,SBD,M
Boys,60,3,Diego Solis,Godley,55.88,108.86,58.97,113.4,281.23,Single-ply,SBD,M
Boys,60,3,Joshua Vandygrift,Godley,58.6,129.27,74.84,136.08,340.19,Single-ply,SBD,M
Boys,60,4,Cesar Montano,Stephenville,58.6,129.27,79.38,131.54,340.19,Single-ply,SBD,M
Boys,60,5,Raymond Pacheco,Millsap,59.6,124.74,52.16,124.74,301.64,Single-ply,SBD,M
Boys,67.5,1,Jayton Trammell,Santo,66.77,170.1,92.99,181.44,444.52,Single-ply,SBD,M
Boys,67.5,2,Devon Hall,Seymour,62.51,154.22,81.65,172.37,408.23,Single-ply,SBD,M
Boys,67.5,3,Casey Stevenson,Rio Vista,63.96,138.35,92.99,147.42,378.75,Single-ply,SBD,M
Boys,67.5,4,Hayden Monk,Stephenville,65.86,138.35,74.84,154.22,367.41,Single-ply,SBD,M
Boys,67.5,5,Jared Singleton,Mineral Wells,66.95,154.22,74.84,127.01,356.07,Single-ply,SBD,M
Boys,67.5,6,Jonah Maston,Santo,61.14,136.08,65.77,151.95,353.8,Single-ply,SBD,M
Boys,67.5,7,Randell Laird,Moran,62.51,136.08,61.23,154.22,351.53,Single-ply,SBD,M
Boys,67.5,8,Tyler Miller,Moran,63.32,106.59,79.38,127.01,312.98,Single-ply,SBD,M
Boys,75,1,Destin Montelongo,Santo,73.57,185.97,108.86,181.44,476.27,Single-ply,SBD,M
Boys,75,2,Daniel Mapes,Godley,73.39,170.1,108.86,163.29,442.25,Single-ply,SBD,M
Boys,75,3,Angel Esparza,Godley,70.76,158.76,99.79,170.1,428.64,Single-ply,SBD,M
Boys,75,4,Noah Maston,Santo,74.03,163.29,92.99,163.29,419.57,Single-ply,SBD,M
Boys,75,5,Spencer Mitchell,Millsap,70.76,170.1,83.91,142.88,396.89,Single-ply,SBD,M
Boys,75,6,Kolton Davis,Millsap,73.39,124.74,77.11,136.08,337.93,Single-ply,SBD,M
Boys,75,DQ,Michael Ivy,Santo,74.84,,,,,Single-ply,SBD,M
Boys,82.5,1,Tate Tabor,Moran,80.2,181.44,122.47,208.65,512.56,Single-ply,SBD,M
Boys,82.5,2,Daniel Secrease,Dallas Life Oak Cliff,77.56,188.24,106.59,183.7,478.54,Single-ply,SBD,M
Boys,82.5,2,Daniel Secrease,Dallas Life Oak Cliff,77.56,188.24,106.59,183.7,478.54,Single-ply,SBD,M
Boys,82.5,3,Cole Schkade,Santo,81.28,181.44,97.52,181.44,460.4,Single-ply,SBD,M
Boys,82.5,4,Jason Wiggin,Rio Vista,81.47,163.29,108.86,163.29,435.45,Single-ply,SBD,M
Boys,82.5,5,Jared Stone,Mineral Wells,79.38,142.88,95.25,190.51,428.64,Single-ply,SBD,M
Boys,82.5,6,Issac De La Cruz,Stephenville,79.65,151.95,106.59,170.1,428.64,Single-ply,SBD,M
Boys,82.5,7,Ryan Goodwin,Mineral Wells,81.19,158.76,99.79,165.56,424.11,Single-ply,SBD,M
Boys,82.5,8,Ricky Bottorf,Millsap,77.66,151.95,83.91,165.56,401.43,Single-ply,SBD,M
Boys,82.5,9,Mason Myall,Santo,79.38,167.83,61.23,165.56,394.63,Single-ply,SBD,M
Boys,82.5,10,Logan Randall,Rio Vista,80.74,133.81,83.91,158.76,376.48,Single-ply,SBD,M
Boys,82.5,11,Jack Fulcher,Godley,78.11,127.01,88.45,136.08,351.53,Single-ply,SBD,M
Boys,90,1,Devin Wilson,Godley,85.37,249.48,181.44,226.8,657.71,Single-ply,SBD,M
Boys,90,2,Ragan Wood,Stephenville,89.72,244.94,145.15,210.92,601.01,Single-ply,SBD,M
Boys,90,3,Preston Guerra,Seymour,86,158.76,102.06,192.78,453.59,Single-ply,SBD,M
Boys,90,4,Jeff Morlen,Millsap,84.19,170.1,104.33,167.83,442.25,Single-ply,SBD,M
Boys,90,5,Ethan Norris,Stephenville,87.09,147.42,83.91,170.1,401.43,Single-ply,SBD,M
Boys,90,6,Ben Steele,Moran,88.18,154.22,92.99,149.69,396.89,Single-ply,SBD,M
Boys,90,7,Jaylen Smith,Dallas Life Oak Cliff,88.45,142.88,97.52,147.42,387.82,Single-ply,SBD,M
Boys,90,7,Jaylen Smith,Dallas Life Oak Cliff,88.45,142.88,97.52,147.42,387.82,Single-ply,SBD,M
Boys,90,8,Erik Fisk,Godley,84.82,145.15,81.65,136.08,362.87,Single-ply,SBD,M
Boys,100,1,Seth Alston,Santo,93.62,210.92,102.06,179.17,492.15,Single-ply,SBD,M
Boys,100,2,Nathan Martin,Stephenville,93.35,183.7,111.13,183.7,478.54,Single-ply,SBD,M
Boys,100,3,Devin Lummus,Godley,91.72,181.44,120.2,158.76,460.4,Single-ply,SBD,M
Boys,100,4,Fabian Alvarez,Rio Vista,97.79,151.95,95.25,158.76,405.97,Single-ply,SBD,M
Boys,100,5,Trevor Brenham,Dallas Life Oak Cliff,98.34,142.88,97.52,151.95,392.36,Single-ply,SBD,M
Boys,100,5,Trevor Brenham,Dallas Life Oak Cliff,98.34,142.88,97.52,151.95,392.36,Single-ply,SBD,M
Boys,100,6,Noble Stevens,Millsap,97.52,142.88,102.06,142.88,387.82,Single-ply,SBD,M
Boys,100,7,Cole Tipton,Millsap,94.44,142.88,92.99,142.88,378.75,Single-ply,SBD,M
Boys,100,8,Daniel Aguilar,Millsap,97.61,136.08,83.91,149.69,369.68,Single-ply,SBD,M
Boys,110,1,Austin Coker,Santo,107.86,272.16,149.69,215.46,637.3,Single-ply,SBD,M
Boys,110,3,Keenon Ponder,Dallas Life Oak Cliff,109.59,181.44,133.81,181.44,496.68,Single-ply,SBD,M
Boys,110,3,Keenon Ponder,Dallas Life Oak Cliff,109.59,181.44,133.81,181.44,496.68,Single-ply,SBD,M
Boys,110,4,Trace Coe,Mineral Wells,104.05,183.7,120.2,174.63,478.54,Single-ply,SBD,M
Boys,110,5,Anthony Coker,Santo,103.6,179.17,106.59,190.51,476.27,Single-ply,SBD,M
Boys,110,6,Bradley Aaron,Mineral Wells,107.5,197.31,,181.44,378.75,Single-ply,SD,M
Boys,125,1,Austin Northcutt,Stephenville,121.65,258.55,154.22,242.67,655.44,Single-ply,SBD,M
Boys,125,2,Jacob Boyd,Mineral Wells,109.95,226.8,163.29,199.58,589.67,Single-ply,SBD,M
Boys,125,2,Trace Boyd,Strawn,114.21,181.44,136.08,204.12,521.63,Single-ply,SBD,M
Boys,125,3,John Garcia,Millsap,121.93,185.97,113.4,183.7,483.08,Single-ply,SBD,M
Boys,125,4,Cameron Urteaga,Stephenville,119.61,183.7,102.06,185.97,471.74,Single-ply,SBD,M
Boys,125,5,Nick Bordelais,Millsap,121.29,158.76,99.79,183.7,442.25,Single-ply,SBD,M
Boys,125,6,Jacob Flores,Strawn,115.03,158.76,68.04,158.76,385.55,Single-ply,SBD,M
Boys,125+,1,Jacob Lopez,Stephenville,143.61,206.38,142.88,219.99,569.26,Single-ply,SBD,M
Boys,125+,2,Daveyon Barnes,Dallas Life Oak Cliff,156.85,181.44,97.52,149.69,428.64,Single-ply,SBD,M
Boys,125+,2,Daveyon Barnes,Dallas Life Oak Cliff,156.85,181.44,97.52,149.69,428.64,Single-ply,SBD,M
