Division,WeightClassKg,Place,Name,Team,BodyweightKg,Best3SquatKg,Best3BenchKg,Best3DeadliftKg,TotalKg,Equipment,Event,Sex
Boys,52,1,Nick Sanchez,Georgetown,50.71,117.93,74.84,136.08,328.85,Single-ply,SBD,M
Boys,52,2,Sergio Huertas,Georgetown,47.54,111.13,63.5,113.4,288.03,Single-ply,SBD,M
Boys,52,3,Colby Williamson,Troy,51.07,102.06,61.23,104.33,267.62,Single-ply,SBD,M
Boys,52,4,Connor Ruchti,Dripping Springs,51.44,95.25,54.43,117.93,267.62,Single-ply,SBD,M
Boys,52,5,Jaquariz Butler,Georgetown East View,48.17,90.72,58.97,113.4,263.08,Single-ply,SBD,M
Boys,52,6,Bradley Spillar,Dripping Springs,50.98,90.72,61.23,92.99,244.94,Single-ply,SBD,M
Boys,52,7,Rudy Pina,Del Valle,49.08,65.77,38.56,102.06,206.38,Single-ply,SBD,M
Boys,56,1,Joe-Angel Carpenter,Troy,54.88,149.69,83.91,161.03,394.63,Single-ply,SBD,M
Boys,56,2,Michael Oster,Troy,55.43,138.35,77.11,140.61,356.07,Single-ply,SBD,M
Boys,56,3,Hernan Casanova,Dripping Springs,52.75,120.2,72.57,127.01,319.78,Single-ply,SBD,M
Boys,56,4,Chris Guerreo,Del Valle,55.61,102.06,58.97,129.27,290.3,Single-ply,SBD,M
Boys,56,5,Kaleb Halfmann,Austin Lake Travis,55.7,88.45,54.43,115.67,258.55,Single-ply,SBD,M
Boys,56,DQ,Noah Pachicano,Taylor,53.07,,,,,Single-ply,SBD,M
Boys,60,1,Nathaniel Burnett,Lockhart,59.06,161.03,106.59,190.51,458.13,Single-ply,SBD,M
Boys,60,2,Shawnpail Fields,Taylor,58.88,149.69,86.18,199.58,435.45,Single-ply,SBD,M
Boys,60,3,Trevor Koestens,Troy,58.15,158.76,97.52,167.83,424.11,Single-ply,SBD,M
Boys,60,4,Michael Marullo,Georgetown East View,58.42,140.61,95.25,136.08,371.95,Single-ply,SBD,M
Boys,60,5,Johnny Mata,Hutto,59.69,122.47,68.04,156.49,347,Single-ply,SBD,M
Boys,60,6,Tristen Aleksines,Hutto,58.15,115.67,72.57,133.81,322.05,Single-ply,SBD,M
Boys,60,7,Brett Smygelski,Georgetown East View,59.24,113.4,74.84,124.74,312.98,Single-ply,SBD,M
Boys,60,8,Omar Deloera,Pflugerville,58.15,104.33,61.23,129.27,294.84,Single-ply,SBD,M
Boys,60,DQ,Justin Chapman,Buda Hays,57.61,136.08,86.18,136.08,,Single-ply,SBD,M
Boys,67.5,1,Isaiah Mesa,Taylor,65.32,247.21,129.27,233.6,610.08,Single-ply,SBD,M
Boys,67.5,2,Sergio Gonzalez,Troy,66.95,190.51,108.86,195.04,494.42,Single-ply,SBD,M
Boys,67.5,3,Matthew Reiff,Pflugerville,65.77,165.56,106.59,179.17,451.32,Single-ply,SBD,M
Boys,67.5,4,Josh Howard,Hutto,66.32,158.76,108.86,161.03,428.64,Single-ply,SBD,M
Boys,67.5,5,Daniel Mireles,Georgetown East View,63.68,156.49,111.13,154.22,421.84,Single-ply,SBD,M
Boys,67.5,6,Stephen Leal,Taylor,62.78,142.88,79.38,170.1,392.36,Single-ply,SBD,M
Boys,67.5,7,Jack Shneeman,Georgetown,65.14,145.15,97.52,147.42,390.09,Single-ply,SBD,M
Boys,67.5,8,Jason Leal,Buda Hays,60.06,138.35,81.65,149.69,369.68,Single-ply,SBD,M
Boys,67.5,9,Alexander Osborne,Austin Lake Travis,64.14,142.88,81.65,136.08,360.61,Single-ply,SBD,M
Boys,67.5,10,Joseph Salazar,Georgetown East View,63.78,138.35,70.31,145.15,353.8,Single-ply,SBD,M
Boys,67.5,11,Connor Black,Georgetown East View,62.23,127.01,92.99,129.27,349.27,Single-ply,SBD,M
Boys,67.5,12,Sutton Lindsey,Bastrop,61.51,113.4,99.79,129.27,342.46,Single-ply,SBD,M
Boys,67.5,13,Ryan Wall,Georgetown East View,63.96,129.27,65.77,142.88,337.93,Single-ply,SBD,M
Boys,67.5,14,Josh Estes,Troy,61.78,113.4,68.04,145.15,326.59,Single-ply,SBD,M
Boys,67.5,15,Jesau Batres,Lockhart,60.33,131.54,63.5,129.27,324.32,Single-ply,SBD,M
Boys,67.5,16,Fabricio Williams,Georgetown East View,63.05,113.4,88.45,120.2,322.05,Single-ply,SBD,M
Boys,67.5,17,Reece Anderson,Austin Lake Travis,62.51,106.59,61.23,124.74,292.57,Single-ply,SBD,M
Boys,67.5,18,Declan Trevethan,Buda Hays,65.77,83.91,70.31,124.74,278.96,Single-ply,SBD,M
Boys,75,1,Matthew Kocian,Taylor,73.66,217.72,111.13,210.92,539.77,Single-ply,SBD,M
Boys,75,2,Prescott Remington,Dripping Springs,74.03,190.51,136.08,213.19,539.77,Single-ply,SBD,M
Boys,75,3,Zach Reid,Dripping Springs,72.39,195.04,136.08,206.38,537.51,Single-ply,SBD,M
Boys,75,4,Eduardo Perez,Georgetown,74.48,208.65,111.13,192.78,512.56,Single-ply,SBD,M
Boys,75,5,Christian Yannis,Taylor,73.84,176.9,95.25,208.65,480.81,Single-ply,SBD,M
Boys,75,6,Daniel Russell,Georgetown East View,73.39,170.1,99.79,183.7,453.59,Single-ply,SBD,M
Boys,75,7,Cameron Forrest,Hutto,71.85,158.76,102.06,183.7,444.52,Single-ply,SBD,M
Boys,75,8,Stryer Black,Troy,74.75,163.29,106.59,170.1,439.98,Single-ply,SBD,M
Boys,75,9,Jesus Alfaro,Bastrop,74.21,142.88,102.06,185.97,430.91,Single-ply,SBD,M
Boys,75,10,Juan Venegas,Dripping Springs,71.67,154.22,104.33,167.83,426.38,Single-ply,SBD,M
Boys,75,11,Mathew Ramos,Austin Lake Travis,69.49,151.95,88.45,163.29,403.7,Single-ply,SBD,M
Boys,75,12,Caleb Forrest,Hutto,72.21,133.81,97.52,172.37,403.7,Single-ply,SBD,M
Boys,75,13,Adam Palomares,Buda Hays,73.03,142.88,88.45,154.22,385.55,Single-ply,SBD,M
Boys,75,14,Elijah Gray,Georgetown,74.75,147.42,68.04,158.76,374.21,Single-ply,SBD,M
Boys,75,15,Jacob Dreher,Georgetown,69.31,129.27,81.65,147.42,358.34,Single-ply,SBD,M
Boys,75,16,Jared Smith,Bastrop,68.4,120.2,83.91,147.42,351.53,Single-ply,SBD,M
Boys,75,17,Paul Sacedo,Georgetown,70.4,124.74,77.11,142.88,344.73,Single-ply,SBD,M
Boys,75,DQ,Isiah Filmore,Georgetown,71.67,86.18,70.31,102.06,,Single-ply,SBD,M
Boys,75,DQ,Trejo Tucker,Hutto,73.48,165.56,102.06,179.17,,Single-ply,SBD,M
Boys,82.5,1,Matt Hemphill,Dripping Springs,81.28,235.87,147.42,224.53,607.81,Single-ply,SBD,M
Boys,82.5,2,Devin Norman,Lockhart,79.2,190.51,131.54,213.19,535.24,Single-ply,SBD,M
Boys,82.5,3,Austin Olson,Hutto,80.74,188.24,113.4,217.72,519.36,Single-ply,SBD,M
Boys,82.5,4,Nate Hines,Georgetown East View,81.74,190.51,117.93,192.78,501.22,Single-ply,SBD,M
Boys,82.5,5,Jakobe Davidson,Hutto,80.56,167.83,104.33,215.46,487.61,Single-ply,SBD,M
Boys,82.5,6,Alan Hernandez #3,Georgetown,81.1,170.1,120.2,172.37,462.66,Single-ply,SBD,M
Boys,82.5,7,Camryn Higgins,Bastrop,75.57,170.1,90.72,181.44,442.25,Single-ply,SBD,M
Boys,82.5,8,Amir Wiley,Pflugerville,80.2,174.63,111.13,156.49,442.25,Single-ply,SBD,M
Boys,82.5,9,Clayton Pitts,Troy,77.38,138.35,102.06,165.56,405.97,Single-ply,SBD,M
Boys,82.5,10,Hugo Urrutia,Austin Bowie,75.93,145.15,83.91,151.95,381.02,Single-ply,SBD,M
Boys,82.5,11,Jude Dennis,Bastrop,80.29,133.81,83.91,147.42,365.14,Single-ply,SBD,M
Boys,82.5,12,Jorge Bulnes,Austin Bowie,77.29,120.2,81.65,149.69,351.53,Single-ply,SBD,M
Boys,82.5,13,Camren Willwerth,Del Valle,75.48,115.67,83.91,142.88,342.46,Single-ply,SBD,M
Boys,82.5,14,Whittman Frazier,Georgetown,76.66,113.4,83.91,145.15,342.46,Single-ply,SBD,M
Boys,82.5,DQ,Edgar Hassan,Georgetown,78.02,188.24,108.86,188.24,,Single-ply,SBD,M
Boys,82.5,DQ,Cody Bannon,Georgetown,81.74,122.47,90.72,131.54,,Single-ply,SBD,M
Boys,82.5,DQ,Jacob Gonzalez,Lockhart,80.92,,,,,Single-ply,SBD,M
Boys,82.5,DQ,Nick Lelii,Lockhart,80.1,,,,,Single-ply,SBD,M
Boys,82.5,DQ,Cade Connors,Austin Lake Travis,77.11,133.81,102.06,138.35,,Single-ply,SBD,M
Boys,82.5,DQ,Chris Aguirre,Buda Hays,80.83,181.44,108.86,181.44,,Single-ply,SBD,M
Boys,82.5,DQ,Brandon Lewis,Troy,77.47,122.47,79.38,145.15,,Single-ply,SBD,M
Boys,90,1,Ryan Leal,Buda Hays,87.91,238.14,158.76,222.26,619.15,Single-ply,SBD,M
Boys,90,2,Greg Rivera,Lockhart,85.82,199.58,133.81,240.4,573.79,Single-ply,SBD,M
Boys,90,3,Shane Buckingham,Taylor,86.36,224.53,120.2,192.78,537.51,Single-ply,SBD,M
Boys,90,4,Sebastian Monroe,Austin Lake Travis,87,183.7,124.74,192.78,501.22,Single-ply,SBD,M
Boys,90,5,Eric Anderson,Georgetown,83.64,188.24,133.81,172.37,494.42,Single-ply,SBD,M
Boys,90,6,Christain Faison,Buda Hays,88.99,163.29,117.93,163.29,444.52,Single-ply,SBD,M
Boys,90,7,Landen Brown,Lockhart,86.36,151.95,108.86,179.17,439.98,Single-ply,SBD,M
Boys,90,8,Frankie Durante,Georgetown,83.19,149.69,108.86,158.76,417.3,Single-ply,SBD,M
Boys,90,9,Isaias Gonzalez,Del Valle,89.81,154.22,83.91,158.76,396.89,Single-ply,SBD,M
Boys,90,10,Logan Gaskey,Bastrop,86.64,142.88,90.72,158.76,392.36,Single-ply,SBD,M
Boys,90,DQ,Nicolas Williams,Buda Hays,89.81,133.81,79.38,151.95,,Single-ply,SBD,M
Boys,90,DQ,Ryan Strobel,Pflugerville,88.36,156.49,97.52,151.95,,Single-ply,SBD,M
Boys,100,1,Rick Reyes,Buda Hays,92.17,247.21,158.76,231.33,637.3,Single-ply,SBD,M
Boys,100,2,Alex Falcon,Troy,97.7,244.94,142.88,238.14,625.96,Single-ply,SBD,M
Boys,100,3,Reid Bacon,Austin Lake Travis,95.89,222.26,145.15,226.8,594.21,Single-ply,SBD,M
Boys,100,4,RJ Petaia,Pflugerville,90.08,192.78,133.81,197.31,523.9,Single-ply,SBD,M
Boys,100,5,Lordswill Uwa-Ndukwe,Hutto,99.79,183.7,111.13,197.31,492.15,Single-ply,SBD,M
Boys,100,6,Tyler Solomon,Georgetown,91.35,176.9,129.27,158.76,464.93,Single-ply,SBD,M
Boys,100,7,Vincent Ume-Ezeoke,Pflugerville,90.08,174.63,106.59,174.63,455.86,Single-ply,SBD,M
Boys,100,8,Jackson Green,Austin Bowie,95.35,170.1,95.25,190.51,455.86,Single-ply,SBD,M
Boys,100,9,Mason Mayer,Georgetown,95.35,142.88,104.33,158.76,405.97,Single-ply,SBD,M
Boys,100,10,Cason Campbell,Georgetown,97.07,142.88,95.25,158.76,396.89,Single-ply,SBD,M
Boys,100,11,Adam Vinyard,Georgetown East View,96.52,113.4,115.67,145.15,374.21,Single-ply,SBD,M
Boys,100,12,Nathan Carlin,Georgetown,95.62,106.59,72.57,147.42,326.59,Single-ply,SBD,M
Boys,100,13,Justin Burnett,Buda Hays,91.9,117.93,56.7,113.4,288.03,Single-ply,SBD,M
Boys,100,DQ,Jaron Horn,Pflugerville,95.89,204.12,167.83,179.17,,Single-ply,SBD,M
Boys,100,DQ,Jason Allen,Taylor,97.07,222.26,136.08,213.19,,Single-ply,SBD,M
Boys,110,1,Hunter Bohanan,Georgetown,107.59,254.01,154.22,219.99,628.23,Single-ply,SBD,M
Boys,110,2,Kade Langston,Austin Lake Travis,106.32,208.65,167.83,206.38,582.87,Single-ply,SBD,M
Boys,110,3,Tyrone Wilson,Bastrop,108.59,197.31,138.35,219.99,555.65,Single-ply,SBD,M
Boys,110,4,Greg Rivas,Bastrop,106.78,199.58,127.01,226.8,553.38,Single-ply,SBD,M
Boys,110,5,Will Masters,Dripping Springs,102.87,204.12,127.01,208.65,539.77,Single-ply,SBD,M
Boys,110,6,Gerardo Martinez,Del Valle,108.32,185.97,124.74,204.12,514.83,Single-ply,SBD,M
Boys,110,7,Brayan Carrera,Del Valle,105.14,192.78,104.33,199.58,496.68,Single-ply,SBD,M
Boys,110,8,Logan Till,Lockhart,103.96,181.44,117.93,192.78,492.15,Single-ply,SBD,M
Boys,110,9,David Sillero,Lockhart,107.68,185.97,140.61,161.03,487.61,Single-ply,SBD,M
Boys,110,10,Brayan Vasquez-Diaz,Del Valle,107.32,129.27,113.4,195.04,437.72,Single-ply,SBD,M
Boys,110,11,Trace Lopez,Taylor,104.42,167.83,90.72,145.15,403.7,Single-ply,SBD,M
Boys,110,DQ,Mathew Herrera,Austin Lake Travis,107.23,249.48,142.88,213.19,,Single-ply,SBD,M
Boys,110,DQ,Dawson Weiss,Austin Lake Travis,101.7,111.13,79.38,124.74,,Single-ply,SBD,M
Boys,125,1,Justin Hoffman,Bastrop,123.38,274.42,147.42,235.87,657.71,Single-ply,SBD,M
Boys,125,2,Tyler Noles,Georgetown,116.3,244.94,165.56,219.99,630.49,Single-ply,SBD,M
Boys,125,3,Kadin Hammonds,Georgetown,115.21,235.87,154.22,201.85,591.94,Single-ply,SBD,M
Boys,125,4,Jake Williamson,Dripping Springs,113.58,195.04,142.88,213.19,551.11,Single-ply,SBD,M
Boys,125,5,Jaylon Knighten,Del Valle,119.57,213.19,113.4,215.46,542.04,Single-ply,SBD,M
Boys,125,6,Jake Mcabe,Austin Lake Travis,124.19,190.51,129.27,206.38,526.17,Single-ply,SBD,M
Boys,125,7,Caleb Bohm,Austin Bowie,113.13,210.92,124.74,183.7,519.36,Single-ply,SBD,M
Boys,125,8,Jackson Pickard,Georgetown East View,121.47,195.04,95.25,172.37,462.66,Single-ply,SBD,M
Boys,125,9,Mark Grimm,Hutto,123.2,151.95,113.4,192.78,458.13,Single-ply,SBD,M
Boys,125,DQ,Brian Arroyo,Georgetown,124.47,156.49,97.52,151.95,,Single-ply,SBD,M
Boys,125,DQ,Peyton Moreland,Austin Bowie,115.3,170.1,95.25,176.9,,Single-ply,SBD,M
Boys,125,1,Roman Ruiz,Lockhart,124.83,281.23,176.9,272.16,730.28,Single-ply,SBD,M
Boys,125+,2,Marty Rodriguez,Hutto,137.62,263.08,136.08,197.31,596.47,Single-ply,SBD,M
Boys,125+,3,Chase Travis,Georgetown,129.55,235.87,142.88,197.31,576.06,Single-ply,SBD,M
Boys,125+,4,Miguel Jaime,Dripping Springs,132.9,240.4,136.08,199.58,576.06,Single-ply,SBD,M
Boys,125+,5,Cameron Fontz,Troy,127.28,206.38,142.88,183.7,532.97,Single-ply,SBD,M
Boys,125+,DQ,Noe Ibarra,Georgetown,134.54,197.31,102.06,183.7,,Single-ply,SBD,M
